<svg xmlns="http://www.w3.org/2000/svg" width="180" height="440" viewBox="0 0 256 626">
    <path fill="#989EB4" fill-rule="evenodd" d="M-312.748 625.686a.314.314 0 1 0 .628 0 .314.314 0 0 0-.628 0m.189-28.38c0 .071.056.126.125.126.07 0 .127-.055.127-.125a.127.127 0 0 0-.127-.128.127.127 0 0 0-.125.128m0-28.38a.126.126 0 1 0 .252-.002.126.126 0 0 0-.252.002m-.064-28.382c0 .105.084.191.189.191.104 0 .19-.086.19-.19a.19.19 0 0 0-.379 0m-.064-28.38a.253.253 0 0 0 .504 0 .253.253 0 0 0-.251-.253.253.253 0 0 0-.253.252m0-28.38a.253.253 0 0 0 .504 0 .253.253 0 0 0-.251-.251.253.253 0 0 0-.253.252m0-28.38a.253.253 0 0 0 .504 0 .253.253 0 0 0-.251-.252.253.253 0 0 0-.253.252m-.06-28.382a.315.315 0 1 0 .628.003.315.315 0 0 0-.629-.003m-.063-28.38a.376.376 0 1 0 .754 0 .376.376 0 1 0-.754 0m-.125-28.38a.504.504 0 1 0 1.008.001.504.504 0 0 0-1.008 0m-.064-28.38a.566.566 0 1 0 .566-.568.566.566 0 0 0-.566.568m0-28.38a.566.566 0 1 0 .566-.568.566.566 0 0 0-.566.569m.064-28.382a.503.503 0 1 0 1.005.003.503.503 0 0 0-1.005-.003m.188-28.38c0 .173.141.316.314.316a.315.315 0 1 0-.313-.316m.124-28.38a.19.19 0 0 0 .38 0 .19.19 0 0 0-.38 0m.127-28.38c0 .035.028.062.062.062a.062.062 0 0 0 .063-.061.064.064 0 0 0-.063-.064.063.063 0 0 0-.062.064m0-28.38c0 .034.028.061.062.061a.062.062 0 0 0 .063-.061.062.062 0 0 0-.063-.064.062.062 0 0 0-.062.064m-.063-28.382c0 .07.056.127.125.127.07 0 .127-.056.127-.127a.126.126 0 1 0-.252 0m0-28.38c0 .07.056.128.125.128.07 0 .127-.057.127-.128a.125.125 0 0 0-.127-.125.125.125 0 0 0-.125.125m0-28.38c0 .071.056.126.125.126.07 0 .127-.055.127-.125a.127.127 0 0 0-.127-.127.127.127 0 0 0-.125.127m-.064-28.38a.19.19 0 0 0 .38 0 .192.192 0 0 0-.191-.19.19.19 0 0 0-.189.19m.064-28.382c0 .07.056.127.125.127.07 0 .127-.056.127-.127a.126.126 0 1 0-.252 0m0-28.38c0 .071.056.128.125.128.07 0 .127-.057.127-.127a.125.125 0 0 0-.127-.125.125.125 0 0 0-.125.125m28.179 624.363a.315.315 0 0 0 .629 0 .314.314 0 0 0-.63 0m.19-28.38c0 .071.056.126.127.126a.125.125 0 0 0 .124-.125.127.127 0 0 0-.124-.128.127.127 0 0 0-.128.128m0-28.38c0 .068.057.125.128.125a.126.126 0 1 0-.128-.125m-.063-28.382c0 .105.086.191.19.191a.19.19 0 0 0 0-.38.19.19 0 0 0-.19.19m-.062-28.38a.252.252 0 1 0 .504 0 .252.252 0 0 0-.504 0m-.063-28.38a.315.315 0 0 0 .629 0 .314.314 0 0 0-.63 0m0-28.38a.315.315 0 1 0 .63-.002.315.315 0 0 0-.63.002m0-28.382a.315.315 0 1 0 .631.002.315.315 0 0 0-.63-.002m-.125-28.38a.44.44 0 1 0 .879 0 .44.44 0 1 0-.88 0m-.126-28.38a.566.566 0 1 0 1.132 0 .566.566 0 0 0-1.132 0m-.125-28.379a.693.693 0 1 0 1.385 0 .693.693 0 0 0-1.385 0m0-28.38a.69.69 0 0 0 1.383 0 .69.69 0 1 0-1.383 0m.125-28.381a.568.568 0 1 0 0 0m.188-28.38a.378.378 0 1 0 .756-.002.378.378 0 0 0-.756.002m.127-28.38a.252.252 0 1 0 .504.002.252.252 0 0 0-.504-.002m.125-28.38c0 .071.057.126.128.126a.125.125 0 0 0 .124-.125.127.127 0 0 0-.124-.128.127.127 0 0 0-.128.128m0-28.38c0 .068.057.125.128.125a.126.126 0 1 0-.128-.125m0-28.382a.127.127 0 0 0 .252 0 .126.126 0 0 0-.252 0m-.063-28.38a.19.19 0 0 0 .379 0 .19.19 0 0 0-.38 0m0-28.38a.19.19 0 0 0 .38 0 .19.19 0 0 0-.38 0m0-28.379a.19.19 0 0 0 .38 0 .19.19 0 0 0-.188-.19.192.192 0 0 0-.191.19m.063-28.382a.127.127 0 0 0 .252 0 .126.126 0 0 0-.252 0m0-28.38a.127.127 0 0 0 .252 0 .125.125 0 0 0-.124-.124.125.125 0 0 0-.128.125m28.243 624.363c0 .139.114.253.252.253a.253.253 0 0 0 .252-.253.253.253 0 0 0-.252-.252.253.253 0 0 0-.252.252m.125-28.38c0 .071.057.126.127.126s.125-.055.125-.125a.125.125 0 0 0-.125-.128.127.127 0 0 0-.127.128m0-28.38c0 .068.057.125.127.125s.125-.057.125-.125a.125.125 0 0 0-.125-.127.127.127 0 0 0-.127.127m-.061-28.382c0 .105.084.191.188.191a.19.19 0 0 0 0-.38.188.188 0 0 0-.188.19m-.064-28.38c0 .138.114.252.252.252a.253.253 0 0 0 .252-.253.253.253 0 0 0-.252-.252.253.253 0 0 0-.252.252m-.064-28.38a.315.315 0 0 0 .63 0 .314.314 0 0 0-.63 0m0-28.379a.315.315 0 1 0 .63-.002.315.315 0 0 0-.63.002m0-28.382a.315.315 0 1 0 .63.002.315.315 0 0 0-.63-.002m-.124-28.38a.441.441 0 1 0 .882 0 .441.441 0 0 0-.882 0m-.128-28.38a.566.566 0 1 0 1.133 0 .566.566 0 0 0-1.133 0m-.125-28.379c0 .382.312.693.693.693a.694.694 0 0 0 0-1.386.694.694 0 0 0-.693.693m0-28.38a.692.692 0 1 0 1.385-.002.692.692 0 0 0-1.385.003m.125-28.382a.566.566 0 1 0 0 0m.128-28.38a.441.441 0 1 0 .882 0 .441.441 0 0 0-.882 0m.124-28.38a.315.315 0 0 0 .63 0 .314.314 0 0 0-.63 0m.064-28.38c0 .14.114.253.252.253a.253.253 0 0 0 .252-.252.253.253 0 0 0-.252-.253.253.253 0 0 0-.252.253m.064-28.38a.19.19 0 0 0 .188.189.19.19 0 0 0 0-.38.19.19 0 0 0-.188.191m.061-28.382c0 .07.057.127.127.127s.125-.056.125-.127a.125.125 0 0 0-.125-.125.127.127 0 0 0-.127.125m-.061-28.38a.188.188 0 1 0 .377 0 .188.188 0 1 0-.377 0m-.064-28.38c0 .14.114.253.252.253a.253.253 0 0 0 .252-.252.253.253 0 0 0-.252-.252.253.253 0 0 0-.252.252m0-28.38c0 .139.114.252.252.252a.253.253 0 0 0 .252-.252.253.253 0 0 0-.252-.252.253.253 0 0 0-.252.252m.064-28.382c0 .105.084.191.188.191a.19.19 0 0 0 0-.38.188.188 0 0 0-.188.19m0-28.38a.188.188 0 1 0 .377 0 .188.188 0 1 0-.377 0m28.367 624.363a.188.188 0 1 0 .377 0 .188.188 0 1 0-.377 0m.062-28.38c0 .071.056.126.127.126.07 0 .125-.055.125-.125a.125.125 0 0 0-.125-.128.127.127 0 0 0-.127.128m0-28.38c0 .068.056.125.127.125.07 0 .125-.057.125-.125a.125.125 0 0 0-.125-.127.127.127 0 0 0-.127.127m0-28.382c0 .07.056.127.127.127.07 0 .125-.056.125-.127a.125.125 0 0 0-.125-.125.127.127 0 0 0-.127.125m-.062-28.38a.188.188 0 1 0 .377 0 .188.188 0 1 0-.377 0m-.063-28.38c0 .14.113.253.252.253a.253.253 0 0 0 .252-.252.253.253 0 0 0-.252-.252.253.253 0 0 0-.252.252m-.062-28.38a.314.314 0 1 0 .629 0 .314.314 0 0 0-.629 0m-.063-28.382c0 .21.168.38.377.38a.378.378 0 0 0 0-.757.378.378 0 0 0-.377.377m-.127-28.38a.505.505 0 0 0 1.008 0 .504.504 0 0 0-1.008 0m-.125-28.38a.63.63 0 1 0 1.258.001.63.63 0 0 0-1.258 0m-.064-28.38c0 .382.311.693.693.693a.694.694 0 0 0 0-1.386.694.694 0 0 0-.693.693m0-28.38a.692.692 0 1 0 1.385-.002.692.692 0 0 0-1.385.003m.064-28.382a.63.63 0 1 0 1.258 0 .63.63 0 0 0-1.258 0m.063-28.38a.566.566 0 1 0 1.133.004.566.566 0 0 0-1.133-.004m.062-28.38c0 .278.227.505.504.505a.506.506 0 0 0 .504-.505.506.506 0 0 0-.504-.504.506.506 0 0 0-.504.504m.19-28.38a.314.314 0 1 0 .629 0 .314.314 0 0 0-.629 0m0-28.379a.314.314 0 1 0 .629-.001.314.314 0 0 0-.629.001m0-28.382c0 .175.141.316.314.316a.315.315 0 0 0 0-.63.314.314 0 0 0-.314.314m0-28.38a.314.314 0 0 0 .627 0 .314.314 0 0 0-.627 0m0-28.38a.314.314 0 0 0 .627 0 .314.314 0 0 0-.627 0m0-28.379a.314.314 0 1 0 .629-.001.314.314 0 0 0-.629.001m.062-28.382a.252.252 0 1 0 .503.001.252.252 0 0 0-.503 0m0-28.38c0 .138.113.252.252.252a.253.253 0 0 0 .252-.252.253.253 0 0 0-.252-.253.253.253 0 0 0-.252.253m28.431 624.363a.188.188 0 1 0 .377 0 .188.188 0 1 0-.377 0m.064-28.38c0 .071.054.126.124.126s.128-.055.128-.125a.127.127 0 0 0-.128-.128.125.125 0 0 0-.124.128m0-28.38c0 .068.054.125.124.125s.128-.057.128-.125a.127.127 0 0 0-.128-.127.125.125 0 0 0-.124.127m0-28.382c0 .07.054.127.124.127s.128-.056.128-.127a.127.127 0 0 0-.128-.125.125.125 0 0 0-.124.125m-.064-28.38a.188.188 0 1 0 .377 0 .188.188 0 1 0-.377 0m-.125-28.38a.314.314 0 1 0 .628 0 .314.314 0 0 0-.628 0m0-28.379a.314.314 0 1 0 .628 0 .314.314 0 0 0-.628 0m-.127-28.382a.44.44 0 1 0 .88.003.44.44 0 0 0-.88-.003m-.189-28.38a.63.63 0 1 0 1.259 0 .63.63 0 0 0-1.259 0m-.188-28.38a.82.82 0 0 0 1.638 0 .82.82 0 0 0-1.638 0m-.125-28.379a.943.943 0 1 0 1.887 0 .943.943 0 0 0-1.887 0m0-28.38a.943.943 0 1 0 1.887 0 .943.943 0 0 0-1.887 0m.063-28.381a.879.879 0 1 0 1.76 0 .88.88 0 0 0-1.76 0m.187-28.38c0 .382.31.693.692.693a.694.694 0 0 0 0-1.386.694.694 0 0 0-.692.693m.063-28.38a.63.63 0 1 0 1.259 0 .63.63 0 0 0-1.259 0m.128-28.38a.502.502 0 1 0 1.004 0 .502.502 0 0 0-1.004 0m.06-28.379a.44.44 0 0 0 .441.439.44.44 0 1 0 0-.88.44.44 0 0 0-.44.441m.063-28.382a.376.376 0 1 0 .755 0 .376.376 0 1 0-.755 0m-.063-28.38a.441.441 0 1 0 .882 0 .441.441 0 0 0-.882 0m0-28.38a.441.441 0 1 0 .882 0 .441.441 0 0 0-.882 0m0-28.379a.441.441 0 1 0 .882 0 .441.441 0 0 0-.882 0m0-28.382a.44.44 0 1 0 .88.002.44.44 0 0 0-.88-.002m0-28.38a.441.441 0 1 0 .882 0 .441.441 0 0 0-.882 0m28.62 624.364c0 .105.084.189.188.189a.19.19 0 0 0 .191-.189.19.19 0 0 0-.38 0m0-28.38a.19.19 0 1 0 .38 0 .192.192 0 0 0-.19-.19.19.19 0 0 0-.19.19m0-28.379c0 .105.085.189.19.189a.19.19 0 0 0 .19-.189.192.192 0 0 0-.19-.19.19.19 0 0 0-.19.19m-.124-28.382a.315.315 0 1 0 .629.003.315.315 0 0 0-.63-.003m-.063-28.38a.378.378 0 1 0 .377-.377.376.376 0 0 0-.377.377m-.061-28.38a.44.44 0 1 0 .879 0 .44.44 0 1 0-.88 0m-.19-28.379a.63.63 0 1 0 1.259 0 .63.63 0 0 0-1.259 0m-.189-28.382a.818.818 0 1 0 1.638 0 .82.82 0 0 0-1.638 0m-.252-28.38a1.07 1.07 0 1 0 2.141 0 1.07 1.07 0 0 0-2.14 0m-.253-28.38a1.322 1.322 0 1 0 2.644.001 1.322 1.322 0 0 0-2.644 0m-.186-28.38a1.51 1.51 0 1 0 3.019 0 1.51 1.51 0 1 0-3.02 0m0-28.38c0 .835.676 1.51 1.51 1.51.835 0 1.51-.675 1.51-1.51a1.509 1.509 0 1 0-3.02 0m.25-28.381a1.259 1.259 0 1 0 2.519.004 1.259 1.259 0 0 0-2.518-.004m.188-28.38a1.07 1.07 0 1 0 2.141 0 1.07 1.07 0 0 0-2.14 0m.251-28.38a.82.82 0 0 0 1.638 0 .82.82 0 0 0-1.638 0m.189-28.38a.63.63 0 1 0 1.259.001.63.63 0 0 0-1.259 0m.127-28.38a.502.502 0 1 0 1.005 0 .502.502 0 0 0-1.005 0m0-28.382a.503.503 0 1 0 1.006.004.503.503 0 0 0-1.006-.004m0-28.38a.504.504 0 1 0 1.009.001.504.504 0 0 0-1.009 0m-.063-28.38a.566.566 0 1 0 1.131 0 .566.566 0 0 0-1.131 0m0-28.38a.566.566 0 1 0 1.131 0 .566.566 0 0 0-1.131 0m.063-28.382a.503.503 0 1 0 1.006.004.503.503 0 0 0-1.006-.004m0-28.38a.503.503 0 1 0 1.006.004.503.503 0 0 0-1.006-.003m28.62 624.363a.252.252 0 1 0 .503.002.252.252 0 0 0-.503-.002m-.064-28.38a.315.315 0 1 0 .63-.001.315.315 0 0 0-.63.002m-.061-28.38a.378.378 0 1 0 .755 0 .378.378 0 0 0-.755 0m-.127-28.382a.503.503 0 1 0 1.006.003.503.503 0 0 0-1.006-.003m-.189-28.38a.693.693 0 1 0 1.386.001.693.693 0 0 0-1.386 0m-.188-28.38a.88.88 0 1 0 1.762.001.88.88 0 0 0-1.762-.001m-.316-28.38a1.197 1.197 0 1 0 2.394-.003 1.197 1.197 0 0 0-2.394.003m-.313-28.382a1.509 1.509 0 1 0 3.018 0 1.508 1.508 0 1 0-3.019 0m-.44-28.38a1.951 1.951 0 1 0 3.902.001 1.951 1.951 0 0 0-3.902 0m-.38-28.38a2.33 2.33 0 1 0 4.66 0 2.33 2.33 0 0 0-4.66 0m-.25-28.38a2.58 2.58 0 0 0 5.158 0 2.579 2.579 0 1 0-5.157 0m.125-28.38a2.455 2.455 0 1 0 4.91-.002 2.455 2.455 0 0 0-4.91.003m.44-28.382a2.015 2.015 0 1 0 4.03.001 2.015 2.015 0 0 0-4.03-.001m.505-28.38a1.51 1.51 0 1 0 3.02.002 1.51 1.51 0 0 0-3.02-.002m.44-28.38a1.069 1.069 0 1 0 2.14 0 1.07 1.07 0 0 0-2.14 0m.314-28.38a.756.756 0 1 0 1.511-.002.756.756 0 0 0-1.511.003m.127-28.38a.63.63 0 1 0 1.258 0 .63.63 0 1 0-1.258 0m.061-28.382a.566.566 0 1 0 0 0m0-28.38a.566.566 0 1 0 1.133 0 .566.566 0 0 0-1.133 0m-.061-28.38a.63.63 0 1 0 1.258.001.63.63 0 0 0-1.258 0m.061-28.38a.566.566 0 1 0 1.133 0 .566.566 0 0 0-1.133 0m.064-28.382a.503.503 0 1 0 1.006.003.503.503 0 0 0-1.006-.003m0-28.38a.503.503 0 1 0 1.006.003.503.503 0 0 0-1.006-.002m28.558 624.363a.314.314 0 0 0 .627 0 .314.314 0 0 0-.627 0m-.127-28.38a.441.441 0 1 0 .882 0 .441.441 0 0 0-.882 0m-.252-28.379a.692.692 0 1 0 1.385-.003.692.692 0 0 0-1.385.003m-.252-28.382a.944.944 0 1 0 1.889.002.944.944 0 0 0-1.89-.002m-.313-28.38a1.259 1.259 0 1 0 2.517.001 1.259 1.259 0 0 0-2.517 0m-.315-28.38a1.573 1.573 0 1 0 3.146-.002 1.573 1.573 0 0 0-3.146.002m-.441-28.38a2.014 2.014 0 1 0 4.029-.002 2.014 2.014 0 0 0-4.029.002m-.44-28.382a2.456 2.456 0 1 0 4.911.001 2.456 2.456 0 0 0-4.912 0m-.69-28.38a3.146 3.146 0 1 0 3.146-3.148 3.146 3.146 0 0 0-3.146 3.148m-.568-28.38a3.713 3.713 0 1 0 7.425 0 3.713 3.713 0 1 0-7.425 0m-.125-28.38a3.84 3.84 0 0 0 3.839 3.84 3.84 3.84 0 0 0 0-7.68 3.84 3.84 0 0 0-3.839 3.84m.189-28.38a3.651 3.651 0 1 0 7.3 0 3.651 3.651 0 0 0-3.65-3.653 3.651 3.651 0 0 0-3.65 3.654m.692-28.382a2.96 2.96 0 0 0 2.958 2.96 2.96 2.96 0 0 0 0-5.919 2.958 2.958 0 0 0-2.958 2.959m.818-28.38a2.14 2.14 0 1 0 2.14-2.14 2.14 2.14 0 0 0-2.14 2.14m.754-28.38c0 .764.62 1.386 1.386 1.386a1.387 1.387 0 0 0 0-2.772c-.766 0-1.386.62-1.386 1.386m.38-28.38a1.005 1.005 0 1 0 2.012 0 1.005 1.005 0 1 0-2.012 0m.186-28.379a.82.82 0 1 0 1.638-.002.82.82 0 0 0-1.638.002m.127-28.382a.693.693 0 1 0 1.386 0 .693.693 0 0 0-1.386 0m0-28.38c0 .382.311.694.693.694a.694.694 0 0 0 0-1.387.694.694 0 0 0-.693.693m.064-28.38a.63.63 0 1 0 1.258.001.63.63 0 0 0-1.258 0m0-28.38a.63.63 0 1 0 1.258 0 .63.63 0 0 0-1.258 0m.124-28.382a.503.503 0 1 0 0 0m0-28.38a.503.503 0 1 0 0 0m28.559 624.364a.314.314 0 0 0 .627 0 .314.314 0 0 0-.627 0m-.252-28.38a.564.564 0 1 0 1.131 0 .566.566 0 1 0-1.131 0m-.44-28.379a1.005 1.005 0 1 0 2.012 0 1.007 1.007 0 1 0-2.013 0m-.504-28.382a1.51 1.51 0 1 0 3.02.002 1.51 1.51 0 0 0-3.02-.002m-.566-28.38a2.076 2.076 0 1 0 4.152 0 2.076 2.076 0 1 0-4.152 0m-.44-28.38a2.517 2.517 0 1 0 5.033 0c0-1.39-1.126-2.52-2.517-2.52a2.519 2.519 0 0 0-2.516 2.52m-.505-28.379a3.022 3.022 0 1 0 6.044.001 3.022 3.022 0 0 0-6.044 0m-.504-28.383a3.526 3.526 0 1 0 7.05 0 3.526 3.526 0 0 0-7.05 0m-.629-28.38a4.156 4.156 0 0 0 4.154 4.157 4.156 4.156 0 0 0 0-8.31 4.154 4.154 0 0 0-4.154 4.154m-.63-28.38a4.785 4.785 0 0 0 4.784 4.786 4.785 4.785 0 0 0 4.784-4.786 4.785 4.785 0 0 0-4.784-4.786 4.785 4.785 0 0 0-4.783 4.786m-.125-28.38c0 2.711 2.199 4.91 4.908 4.91a4.911 4.911 0 0 0 0-9.82 4.91 4.91 0 0 0-4.908 4.91m.377-28.38a4.53 4.53 0 0 0 4.531 4.532 4.532 4.532 0 1 0-4.531-4.531m.82-28.382a3.713 3.713 0 1 0 7.425 0 3.712 3.712 0 1 0-7.425 0m1.006-28.38a2.705 2.705 0 1 0 5.41 0 2.705 2.705 0 1 0-5.41 0m.881-28.38a1.825 1.825 0 1 0 3.65 0 1.825 1.825 0 1 0-3.65 0m.502-28.38c0 .73.593 1.323 1.322 1.323a1.323 1.323 0 0 0 0-2.645c-.729 0-1.322.591-1.322 1.323m.316-28.38a1.005 1.005 0 1 0 2.013 0 1.007 1.007 0 1 0-2.013 0m.125-28.382a.88.88 0 1 0 1.762.002.88.88 0 0 0-1.762-.002m.064-28.38a.817.817 0 1 0 1.634.002.817.817 0 0 0-1.634-.002m.061-28.38a.757.757 0 0 0 1.513 0 .756.756 0 1 0-1.513 0m.127-28.379a.63.63 0 1 0 1.259 0 .63.63 0 0 0-1.259 0m.125-28.382a.505.505 0 0 0 1.009 0 .504.504 0 0 0-1.009 0m0-28.38a.505.505 0 0 0 1.009 0 .504.504 0 0 0-1.009 0m28.559 624.364a.314.314 0 1 0 .628 0 .314.314 0 0 0-.628 0m-.38-28.38a.693.693 0 1 0 1.386 0 .693.693 0 0 0-1.386 0m-.565-28.379a1.259 1.259 0 1 0 2.516 0 1.259 1.259 0 1 0-2.516 0m-.693-28.382a1.951 1.951 0 1 0 3.903.001 1.951 1.951 0 0 0-3.903 0m-.754-28.38a2.705 2.705 0 1 0 5.413 0 2.707 2.707 0 0 0-5.413 0m-.566-28.38a3.271 3.271 0 1 0 6.544 0 3.273 3.273 0 0 0-6.544 0m-.44-28.38a3.713 3.713 0 1 0 7.425 0 3.713 3.713 0 1 0-7.425 0m-.316-28.382a4.03 4.03 0 0 0 4.027 4.031 4.03 4.03 0 0 0 4.027-4.03 4.029 4.029 0 0 0-4.027-4.03 4.029 4.029 0 0 0-4.027 4.03m-.63-28.38a4.658 4.658 0 1 0 9.316 0 4.658 4.658 0 0 0-9.315 0m-.441-28.38a5.098 5.098 0 0 0 10.194 0 5.098 5.098 0 1 0-10.194 0m-.125-28.38a5.222 5.222 0 1 0 10.446 0 5.224 5.224 0 0 0-10.446 0m.314-28.38a4.909 4.909 0 1 0 9.818 0 4.909 4.909 0 0 0-9.818 0m.88-28.381a4.03 4.03 0 0 0 4.028 4.03 4.03 4.03 0 0 0 4.027-4.03 4.029 4.029 0 0 0-4.027-4.03 4.029 4.029 0 0 0-4.027 4.03m1.006-28.38a3.022 3.022 0 1 0 6.044.001 3.022 3.022 0 0 0-6.044-.001m.82-28.38a2.202 2.202 0 1 0 4.404 0 2.203 2.203 0 1 0-4.404 0m.63-28.38a1.573 1.573 0 1 0 3.145 0 1.573 1.573 0 0 0-3.146 0m.314-28.379a1.259 1.259 0 1 0 2.516 0 1.259 1.259 0 1 0-2.516 0m.127-28.382a1.132 1.132 0 1 0 2.264.004 1.132 1.132 0 0 0-2.264-.004m0-28.38a1.133 1.133 0 1 0 2.267.001 1.133 1.133 0 0 0-2.267 0m.125-28.38a1.005 1.005 0 1 0 2.012 0 1.005 1.005 0 1 0-2.012 0m.127-28.38c0 .486.393.88.88.88a.88.88 0 1 0-.879-.88m.249-28.382a.63.63 0 1 0 1.26.004.63.63 0 0 0-1.26-.004m0-28.38a.63.63 0 1 0 1.258 0 .63.63 0 0 0-1.258 0m28.683 624.364a.315.315 0 0 0 .63 0 .314.314 0 0 0-.63 0m-.377-28.38a.693.693 0 1 0 1.386.001.693.693 0 0 0-1.386 0m-.568-28.38a1.259 1.259 0 0 0 2.52 0 1.259 1.259 0 1 0-2.52 0m-.879-28.382a2.138 2.138 0 1 0 4.277 0 2.139 2.139 0 1 0-4.277 0m-.883-28.38a3.022 3.022 0 1 0 6.044 0 3.022 3.022 0 0 0-6.044 0m-.502-28.38a3.524 3.524 0 0 0 7.048 0 3.526 3.526 0 0 0-3.523-3.526 3.526 3.526 0 0 0-3.525 3.527m-.252-28.38a3.776 3.776 0 1 0 7.552 0 3.778 3.778 0 0 0-3.775-3.779 3.778 3.778 0 0 0-3.777 3.78m-.189-28.383a3.966 3.966 0 0 0 7.93 0 3.964 3.964 0 1 0-7.93 0m-.377-28.38c0 2.4 1.944 4.345 4.343 4.345a4.343 4.343 0 0 0 0-8.687 4.342 4.342 0 0 0-4.343 4.343m-.38-28.38a4.723 4.723 0 0 0 4.723 4.722 4.723 4.723 0 0 0 0-9.444 4.723 4.723 0 0 0-4.722 4.722m-.125-28.38a4.846 4.846 0 1 0 9.693.001 4.846 4.846 0 0 0-9.693 0m.316-28.38a4.53 4.53 0 1 0 9.06 0 4.531 4.531 0 1 0-9.06 0m.692-28.382a3.838 3.838 0 1 0 7.675 0 3.839 3.839 0 1 0-7.675 0m.754-28.38a3.085 3.085 0 0 0 3.085 3.086 3.085 3.085 0 0 0 3.082-3.086 3.085 3.085 0 0 0-3.082-3.086 3.085 3.085 0 0 0-3.085 3.086m.755-28.38a2.33 2.33 0 1 0 4.658 0 2.33 2.33 0 0 0-4.658 0m.504-28.38a1.826 1.826 0 1 0 3.652-.002 1.826 1.826 0 0 0-3.652.003m.316-28.38c0 .834.674 1.509 1.51 1.509.834 0 1.508-.675 1.508-1.509a1.508 1.508 0 1 0-3.018 0m.06-28.382a1.447 1.447 0 1 0 2.895 0 1.447 1.447 0 0 0-2.894 0m0-28.38a1.447 1.447 0 1 0 2.894.001 1.447 1.447 0 0 0-2.894 0m0-28.38a1.447 1.447 0 1 0 2.894 0 1.447 1.447 0 0 0-2.894 0m.252-28.38a1.197 1.197 0 1 0 2.394-.003 1.197 1.197 0 0 0-2.394.003m.252-28.382a.944.944 0 1 0 1.889.002.944.944 0 0 0-1.889-.002m0-28.38a.944.944 0 1 0 1.889.002.944.944 0 0 0-1.889-.001M-.699 625.686a.315.315 0 0 0 .63 0 .314.314 0 0 0-.63 0m-.252-28.38a.566.566 0 1 0 1.132 0 .566.566 0 0 0-1.132 0m-.566-28.379a1.132 1.132 0 1 0 2.264 0 1.132 1.132 0 0 0-2.264 0m-.881-28.382a2.015 2.015 0 1 0 4.03.002 2.015 2.015 0 0 0-4.03-.002m-.754-28.38a2.769 2.769 0 1 0 5.538 0 2.769 2.769 0 1 0-5.538 0m-.504-28.38a3.271 3.271 0 1 0 6.544 0 3.273 3.273 0 1 0-6.544 0m-.125-28.379a3.4 3.4 0 0 0 3.398 3.4 3.4 3.4 0 0 0 0-6.8 3.4 3.4 0 0 0-3.398 3.4m0-28.382a3.4 3.4 0 0 0 3.398 3.402 3.4 3.4 0 0 0 3.398-3.402 3.4 3.4 0 0 0-3.398-3.4 3.4 3.4 0 0 0-3.398 3.4m-.252-28.38a3.65 3.65 0 1 0 7.3 0 3.651 3.651 0 0 0-7.3 0m-.253-28.38a3.9 3.9 0 1 0 7.802 0 3.9 3.9 0 1 0-7.802 0m-.125-28.379a4.029 4.029 0 0 0 4.028 4.03 4.029 4.029 0 0 0 0-8.059 4.029 4.029 0 0 0-4.028 4.03m.253-28.38a3.776 3.776 0 1 0 7.55 0 3.778 3.778 0 0 0-3.775-3.78 3.778 3.778 0 0 0-3.775 3.78m.377-28.382a3.401 3.401 0 0 0 3.398 3.401 3.401 3.401 0 0 0 0-6.8 3.4 3.4 0 0 0-3.398 3.399m.502-28.38a2.895 2.895 0 0 0 5.79 0 2.895 2.895 0 0 0-5.79 0m.504-28.38a2.392 2.392 0 1 0 4.785.001 2.392 2.392 0 0 0-4.785 0m.565-28.38a1.826 1.826 0 1 0 3.653-.003 1.826 1.826 0 0 0-3.653.003m.253-28.38a1.573 1.573 0 1 0 3.146-.001 1.573 1.573 0 0 0-3.146.001m-.064-28.382c0 .904.734 1.638 1.638 1.638a1.638 1.638 0 0 0 0-3.274c-.904 0-1.638.734-1.638 1.636m-.125-28.38a1.762 1.762 0 1 0 3.525 0 1.763 1.763 0 0 0-3.525 0m-.064-28.38a1.826 1.826 0 1 0 3.653-.002 1.826 1.826 0 0 0-3.653.003m.253-28.38a1.573 1.573 0 1 0 3.146-.001 1.573 1.573 0 0 0-3.146.001m.377-28.382a1.197 1.197 0 1 0 0 0m0-28.38a1.197 1.197 0 1 0 0 0m29.25 624.364a.314.314 0 0 0 .628 0 .314.314 0 0 0-.627 0m-.19-28.38a.504.504 0 1 0 1.007-.003.504.504 0 0 0-1.008.004m-.44-28.38a.943.943 0 1 0 1.888 0 .943.943 0 0 0-1.889 0m-.565-28.382a1.51 1.51 0 1 0 3.02.002 1.51 1.51 0 0 0-3.02-.002m-.693-28.38a2.203 2.203 0 1 0 4.407 0 2.204 2.204 0 0 0-4.407 0m-.313-28.38a2.517 2.517 0 1 0 5.033 0c0-1.39-1.127-2.52-2.517-2.52a2.519 2.519 0 0 0-2.516 2.52m-.128-28.379a2.644 2.644 0 1 0 5.288-.001 2.644 2.644 0 0 0-5.288.001m-.06-28.382a2.707 2.707 0 0 0 2.704 2.709 2.707 2.707 0 0 0 0-5.415 2.707 2.707 0 0 0-2.705 2.706m-.127-28.38a2.832 2.832 0 1 0 5.665 0 2.834 2.834 0 1 0-5.665 0m-.189-28.38a3.02 3.02 0 1 0 6.042 0 3.02 3.02 0 1 0-6.042 0m-.063-28.379a3.085 3.085 0 1 0 6.17.002 3.085 3.085 0 0 0-6.17-.002m.063-28.38a3.022 3.022 0 1 0 6.044.002 3.022 3.022 0 0 0-6.044-.001m.189-28.382a2.832 2.832 0 1 0 5.664.003 2.832 2.832 0 0 0-5.664-.003m.252-28.38a2.58 2.58 0 1 0 5.16 0 2.58 2.58 0 0 0-5.16 0m.377-28.38a2.203 2.203 0 1 0 4.407 0 2.204 2.204 0 0 0-4.407 0m.377-28.38a1.826 1.826 0 1 0 3.653-.002 1.826 1.826 0 0 0-3.653.003m.252-28.38a1.573 1.573 0 1 0 3.147-.001 1.573 1.573 0 0 0-3.147.001m-.061-28.382c0 .904.731 1.638 1.635 1.638a1.637 1.637 0 0 0 0-3.274c-.904 0-1.635.734-1.635 1.636m-.19-28.38a1.825 1.825 0 0 0 3.65 0 1.825 1.825 0 1 0-3.65 0m-.062-28.38a1.888 1.888 0 1 0 3.775.002 1.888 1.888 0 0 0-3.775-.001m.125-28.38a1.763 1.763 0 1 0 1.763-1.763c-.975 0-1.763.788-1.763 1.763m.44-28.382a1.322 1.322 0 1 0 2.644.001 1.322 1.322 0 0 0-2.644 0m0-28.38a1.322 1.322 0 1 0 2.644 0 1.322 1.322 0 0 0-2.644 0M56.1 625.686c0 .139.113.253.252.253a.253.253 0 0 0 .252-.253.253.253 0 0 0-.252-.252.253.253 0 0 0-.252.252m-.125-28.38a.376.376 0 1 0 .754 0 .376.376 0 1 0-.754 0m-.316-28.379a.692.692 0 1 0 1.385-.003.692.692 0 0 0-1.385.003m-.377-28.382a1.069 1.069 0 1 0 2.14 0 1.07 1.07 0 0 0-2.14 0m-.377-28.38a1.447 1.447 0 1 0 2.893.002 1.447 1.447 0 0 0-2.893-.002m-.377-28.38a1.824 1.824 0 1 0 3.65 0 1.826 1.826 0 0 0-3.65 0m-.188-28.379a2.014 2.014 0 1 0 4.027 0 2.014 2.014 0 0 0-4.027 0m-.064-28.382c0 1.148.929 2.08 2.076 2.08a2.078 2.078 0 0 0 0-4.157 2.077 2.077 0 0 0-2.076 2.077m-.189-28.38a2.266 2.266 0 1 0 4.532.004 2.266 2.266 0 0 0-4.532-.003m-.127-28.38a2.392 2.392 0 1 0 4.785 0 2.392 2.392 0 0 0-4.785 0m-.063-28.38c0 1.357 1.099 2.454 2.455 2.454a2.456 2.456 0 1 0-2.455-2.454m0-28.38a2.455 2.455 0 1 0 4.91-.002 2.455 2.455 0 0 0-4.91.003m.063-28.382a2.392 2.392 0 1 0 4.785 0 2.392 2.392 0 0 0-4.785 0m.064-28.38a2.328 2.328 0 1 0 4.656 0 2.329 2.329 0 1 0-4.656 0m.252-28.38a2.076 2.076 0 1 0 4.152 0 2.076 2.076 0 1 0-4.152 0m.313-28.38a1.763 1.763 0 1 0 3.524 0 1.763 1.763 0 0 0-3.524 0m.316-28.379a1.447 1.447 0 1 0 2.894 0 1.447 1.447 0 1 0-2.894 0m.061-28.382a1.386 1.386 0 1 0 2.771.001 1.386 1.386 0 0 0-2.77 0m-.25-28.38a1.635 1.635 0 1 0 3.27 0 1.635 1.635 0 1 0-3.27 0m-.064-28.38a1.7 1.7 0 1 0 3.4 0 1.7 1.7 0 0 0-3.4 0m.127-28.38a1.573 1.573 0 1 0 3.146 0 1.573 1.573 0 0 0-3.146 0m.314-28.382a1.259 1.259 0 1 0 2.518.004 1.259 1.259 0 0 0-2.518-.004m0-28.38a1.259 1.259 0 1 0 2.517.001 1.259 1.259 0 0 0-2.517 0m29.374 624.363a.252.252 0 1 0 0 0m-.062-28.38a.314.314 0 1 0 .628 0 .314.314 0 0 0-.628 0m-.125-28.379a.44.44 0 1 0 .438-.44.438.438 0 0 0-.438.44m-.254-28.382a.693.693 0 1 0 1.385 0 .693.693 0 0 0-1.385 0m-.314-28.38a1.007 1.007 0 1 0 1.006-1.007c-.556 0-1.006.45-1.006 1.007m-.252-28.38a1.259 1.259 0 1 0 2.517.002 1.259 1.259 0 0 0-2.517-.001m-.188-28.38a1.447 1.447 0 1 0 2.893.002 1.447 1.447 0 0 0-2.893-.002m-.189-28.382c0 .905.734 1.639 1.636 1.639a1.638 1.638 0 0 0 0-3.274c-.902 0-1.636.733-1.636 1.635m-.188-28.38a1.826 1.826 0 1 0 3.652.002 1.826 1.826 0 0 0-3.652-.001m-.064-28.38a1.888 1.888 0 1 0 3.776.001 1.888 1.888 0 0 0-3.776-.001m-.063-28.38a1.951 1.951 0 1 0 0 0m-.062-28.38a2.014 2.014 0 1 0 4.028 0 2.014 2.014 0 0 0-4.028 0m-.063-28.381a2.08 2.08 0 0 0 2.076 2.079 2.08 2.08 0 0 0 0-4.156 2.079 2.079 0 0 0-2.076 2.077m0-28.38a2.077 2.077 0 1 0 4.154 0 2.077 2.077 0 0 0-4.154 0m.125-28.38a1.951 1.951 0 1 0 0 0m.315-28.38a1.638 1.638 0 0 0 3.273 0c0-.904-.733-1.638-1.637-1.638-.902 0-1.636.734-1.636 1.639m.377-28.38a1.259 1.259 0 1 0 2.52 0 1.26 1.26 0 1 0-2.52 0m.127-28.382a1.132 1.132 0 1 0 2.264.004 1.132 1.132 0 0 0-2.264-.004m-.063-28.38a1.197 1.197 0 1 0 2.394.002 1.197 1.197 0 0 0-2.394-.002m-.064-28.38a1.259 1.259 0 1 0 2.517.002 1.259 1.259 0 0 0-2.517-.001m.064-28.38a1.196 1.196 0 1 0 2.393-.002 1.196 1.196 0 0 0-2.393.002m.252-28.382a.944.944 0 1 0 1.888.003.944.944 0 0 0-1.888-.003m0-28.38a.944.944 0 1 0 1.888.003.944.944 0 0 0-1.888-.002m29.06 624.363a.252.252 0 1 0 .504.002.252.252 0 0 0-.504-.002m-.063-28.38a.315.315 0 1 0 .63-.001.315.315 0 0 0-.63.002m-.064-28.38a.378.378 0 1 0 .38-.38.38.38 0 0 0-.38.38m-.188-28.382a.568.568 0 1 0 0 0m-.125-28.38a.693.693 0 1 0 1.385.001.693.693 0 0 0-1.385 0m-.252-28.38a.944.944 0 1 0 1.887-.002.944.944 0 0 0-1.887.002m-.125-28.38a1.069 1.069 0 1 0 2.14 0 1.07 1.07 0 0 0-2.14 0m-.191-28.382a1.26 1.26 0 1 0 2.519.004 1.26 1.26 0 0 0-2.519-.004m-.125-28.38a1.386 1.386 0 1 0 2.771.002 1.386 1.386 0 0 0-2.771-.001m-.061-28.38a1.447 1.447 0 1 0 1.447-1.448c-.802 0-1.447.648-1.447 1.448m0-28.38a1.447 1.447 0 1 0 1.447-1.448c-.802 0-1.447.648-1.447 1.448m-.128-28.38a1.573 1.573 0 1 0 3.147 0 1.573 1.573 0 0 0-3.147 0m-.124-28.381a1.698 1.698 0 1 0 3.398 0 1.7 1.7 0 1 0-3.398 0m-.128-28.38a1.826 1.826 0 1 0 0 0m.064-28.38a1.763 1.763 0 1 0 0 0m.252-28.38a1.51 1.51 0 1 0 1.51-1.51c-.835 0-1.51.674-1.51 1.51m.314-28.379a1.197 1.197 0 1 0 2.393-.003 1.197 1.197 0 0 0-2.393.003m.252-28.382a.944.944 0 1 0 1.888.002.944.944 0 0 0-1.888-.002m.063-28.38a.88.88 0 1 0 1.762.002.88.88 0 0 0-1.762-.002m.062-28.38a.82.82 0 0 0 1.637 0 .82.82 0 0 0-1.638 0m.064-28.379a.756.756 0 1 0 1.512-.003.756.756 0 0 0-1.512.003m.125-28.382a.63.63 0 1 0 1.26.003.63.63 0 0 0-1.26-.003m0-28.38a.63.63 0 1 0 1.26 0 .63.63 0 0 0-1.26 0m28.747 624.364c0 .139.114.253.252.253a.253.253 0 0 0 .252-.253.253.253 0 0 0-.252-.252.253.253 0 0 0-.252.252m-.063-28.38a.315.315 0 1 0 .629-.001.315.315 0 0 0-.63.002m-.06-28.38a.378.378 0 1 0 .755 0 .378.378 0 0 0-.756 0m-.127-28.382a.503.503 0 1 0 0 0m-.125-28.38a.63.63 0 1 0 1.259 0 .63.63 0 0 0-1.259 0m-.127-28.38c0 .417.338.758.756.758a.757.757 0 0 0 0-1.514.756.756 0 0 0-.756.757m-.125-28.38a.88.88 0 1 0 1.76-.002.88.88 0 0 0-1.76.002m-.125-28.382a1.007 1.007 0 1 0 2.015.003 1.007 1.007 0 0 0-2.015-.003m-.064-28.38a1.07 1.07 0 1 0 2.141 0 1.07 1.07 0 0 0-2.14 0m-.064-28.38a1.134 1.134 0 1 0 2.268 0 1.134 1.134 0 0 0-2.268 0m0-28.379a1.134 1.134 0 1 0 2.268 0 1.134 1.134 0 0 0-2.268 0m-.064-28.38a1.197 1.197 0 1 0 2.394-.003 1.197 1.197 0 0 0-2.394.004m-.125-28.382a1.322 1.322 0 1 0 2.644.001 1.322 1.322 0 0 0-2.644-.001m-.188-28.38a1.51 1.51 0 1 0 3.02.002 1.51 1.51 0 0 0-3.02-.002m-.064-28.38c0 .868.704 1.575 1.574 1.575a1.575 1.575 0 0 0 0-3.15c-.87 0-1.574.705-1.574 1.575m.127-28.38a1.447 1.447 0 1 0 2.894.002 1.447 1.447 0 0 0-2.894-.001m.25-28.38a1.197 1.197 0 1 0 2.394-.003 1.197 1.197 0 0 0-2.394.003m.316-28.382a.88.88 0 1 0 1.762.002.88.88 0 0 0-1.762-.002m.188-28.38c0 .382.312.694.693.694a.694.694 0 0 0 0-1.387.694.694 0 0 0-.693.693m.189-28.38a.504.504 0 0 0 1.006 0 .504.504 0 1 0-1.006 0m.064-28.379a.441.441 0 1 0 .882 0 .441.441 0 0 0-.882 0m.063-28.382c0 .21.168.38.377.38a.378.378 0 0 0 0-.757.378.378 0 0 0-.377.377m0-28.38a.376.376 0 1 0 .754 0 .376.376 0 1 0-.754 0m28.556 624.364a.188.188 0 1 0 .377 0 .188.188 0 1 0-.377 0m-.063-28.38c0 .14.113.253.252.253a.253.253 0 0 0 .252-.252.253.253 0 0 0-.252-.252.253.253 0 0 0-.252.252m-.062-28.38a.314.314 0 1 0 .629-.001.314.314 0 0 0-.629.001m-.127-28.382a.441.441 0 1 0 .883 0 .441.441 0 0 0-.883 0m-.125-28.38c0 .314.252.566.566.566a.564.564 0 0 0 .565-.566.564.564 0 0 0-.565-.565.564.564 0 0 0-.566.565m-.127-28.38c0 .383.311.694.693.694a.694.694 0 0 0 0-1.386.694.694 0 0 0-.693.693m0-28.38c0 .382.311.693.693.693a.694.694 0 0 0 0-1.386.693.693 0 0 0-.693.693m-.125-28.382a.818.818 0 1 0 1.636 0 .817.817 0 1 0-1.636 0m0-28.38c0 .453.366.82.818.82a.82.82 0 0 0 0-1.637.817.817 0 0 0-.818.818m-.063-28.38a.882.882 0 1 0 1.764-.001.882.882 0 0 0-1.764 0m0-28.379a.88.88 0 1 0 1.76-.002.88.88 0 0 0-1.76.002m0-28.38a.88.88 0 1 0 1.76-.001.88.88 0 0 0-1.76.002m-.189-28.382a1.069 1.069 0 1 0 2.14 0 1.07 1.07 0 0 0-2.14 0m-.188-28.38a1.259 1.259 0 1 0 2.517 0 1.259 1.259 0 0 0-2.517 0m-.189-28.38a1.447 1.447 0 1 0 2.893.002 1.447 1.447 0 0 0-2.893-.002m.061-28.38a1.385 1.385 0 1 0 2.77-.002 1.385 1.385 0 0 0-2.77.003m.191-28.38a1.195 1.195 0 1 0 2.39 0 1.196 1.196 0 1 0-2.39 0m.314-28.382a.88.88 0 1 0 1.761.002.88.88 0 0 0-1.761-.002m.252-28.38a.63.63 0 1 0 1.258 0 .63.63 0 0 0-1.258 0m.188-28.38a.441.441 0 1 0 .883 0 .441.441 0 0 0-.883 0m.127-28.379a.314.314 0 1 0 .629-.001.314.314 0 0 0-.629.001m.125-28.382c0 .105.084.191.189.191a.19.19 0 0 0 0-.38.188.188 0 0 0-.189.19m0-28.38a.188.188 0 1 0 .377 0 .188.188 0 1 0-.377 0m28.368 624.363a.188.188 0 1 0 .377 0 .188.188 0 1 0-.377 0m-.064-28.38a.253.253 0 0 0 .504 0 .253.253 0 0 0-.251-.251.253.253 0 0 0-.253.252m-.06-28.38a.314.314 0 1 0 .627-.001.314.314 0 0 0-.628.001m-.127-28.382a.441.441 0 1 0 .882 0 .441.441 0 0 0-.882 0m-.125-28.38a.566.566 0 1 0 .566-.566.564.564 0 0 0-.566.566m-.127-28.38c0 .383.311.694.693.694a.694.694 0 0 0 0-1.386.694.694 0 0 0-.693.693m-.062-28.38a.755.755 0 1 0 1.511-.002.755.755 0 0 0-1.51.002m0-28.382a.756.756 0 1 0 1.511.002.756.756 0 0 0-1.512-.002m0-28.38a.756.756 0 1 0 1.512.002.756.756 0 0 0-1.512-.001m0-28.38c0 .416.339.757.755.757a.758.758 0 0 0 0-1.514.757.757 0 0 0-.755.757m0-28.38a.755.755 0 1 0 1.511-.002.755.755 0 0 0-1.51.002m-.064-28.38a.82.82 0 1 0 .818-.82.82.82 0 0 0-.818.82m-.125-28.381a.944.944 0 1 0 1.888.002.944.944 0 0 0-1.888-.002m-.189-28.38a1.132 1.132 0 1 0 2.265 0c0-.625-.507-1.134-1.133-1.134-.625 0-1.132.51-1.132 1.134m-.127-28.38a1.259 1.259 0 1 0 2.517.001 1.259 1.259 0 0 0-2.517 0m0-28.38a1.259 1.259 0 1 0 2.517 0 1.259 1.259 0 0 0-2.517 0m.127-28.38a1.132 1.132 0 1 0 2.265 0 1.132 1.132 0 1 0-2.265 0m.253-28.382a.879.879 0 1 0 1.76 0 .88.88 0 0 0-1.76 0m.25-28.38a.63.63 0 1 0 1.258 0 .63.63 0 0 0-1.259 0m.253-28.38a.376.376 0 1 0 .754 0 .376.376 0 1 0-.754 0m.124-28.379a.253.253 0 0 0 .504 0 .253.253 0 0 0-.251-.252.253.253 0 0 0-.253.252m.128-28.382c0 .07.054.127.125.127.07 0 .127-.056.127-.127a.127.127 0 0 0-.127-.125.125.125 0 0 0-.125.125m0-28.38c0 .071.054.128.125.128.07 0 .127-.057.127-.127a.125.125 0 0 0-.127-.125.123.123 0 0 0-.125.125m28.115 567.604a.38.38 0 0 0 .757 0 .38.38 0 0 0-.38-.38.38.38 0 0 0-.377.38m-.377-141.903a.756.756 0 1 0 1.512.002.756.756 0 0 0-1.512-.002m-.063-28.38a.82.82 0 1 0 1.638.003.82.82 0 0 0-1.638-.002m0-28.38a.82.82 0 0 0 1.638 0 .82.82 0 0 0-1.638 0m-.062-28.38c0 .487.393.88.88.88a.88.88 0 1 0-.879-.88m-.064-28.38a.943.943 0 1 0 1.886 0 .943.943 0 0 0-1.886 0m-.128-28.381a1.069 1.069 0 1 0 2.14 0 1.069 1.069 0 1 0-2.14 0m28.747 227.041a.693.693 0 1 0 1.386.001.693.693 0 0 0-1.386 0m-.063-56.76a.756.756 0 1 0 1.511-.003.756.756 0 0 0-1.511.003m.756-57.832a1.07 1.07 0 1 1-.001 2.141 1.07 1.07 0 0 1 .001-2.14"/>
</svg>
