<svg xmlns="http://www.w3.org/2000/svg" width="547" height="601" viewBox="0 0 547 601">
    <path fill="#989EB4" fill-rule="evenodd" d="M.546 600.094a.243.243 0 1 0 .487-.001.243.243 0 0 0-.487 0m0-26.53c0 .055.044.097.097.097a.097.097 0 0 0 .098-.097.098.098 0 0 0-.098-.098.098.098 0 0 0-.097.098m0-27.266a.098.098 0 1 0 .195-.002.098.098 0 0 0-.195.002m0-27.219c0 .081.065.148.146.148.081 0 .148-.067.148-.148a.147.147 0 0 0-.294 0m0-27.217c0 .107.088.195.195.195a.196.196 0 0 0 .196-.195.196.196 0 0 0-.196-.195.196.196 0 0 0-.195.195m0-27.266c0 .107.088.195.195.195a.196.196 0 0 0 .196-.195.196.196 0 0 0-.196-.195.196.196 0 0 0-.195.195m0-27.266c0 .107.088.195.195.195a.196.196 0 0 0 .196-.195.196.196 0 0 0-.196-.195.196.196 0 0 0-.195.195m0-27.219a.244.244 0 1 0 .487.002.244.244 0 0 0-.487-.002m0-27.217a.291.291 0 1 0 .584 0 .291.291 0 1 0-.584 0m0-28.047a.39.39 0 1 0 .78 0 .39.39 0 0 0-.78 0m0-27.217a.438.438 0 1 0 .438-.44.438.438 0 0 0-.438.44m0-27.266a.438.438 0 1 0 .438-.44.438.438 0 0 0-.438.44m0-26.438a.39.39 0 1 0 .779.003.39.39 0 0 0-.779-.003m0-27.412c0 .134.11.244.243.244a.244.244 0 1 0-.243-.245m0-27.362a.147.147 0 0 0 .294 0 .147.147 0 0 0-.294 0m.88-27.363c0 .026.02.047.047.047.028 0 .05-.02.05-.047a.05.05 0 0 0-.05-.05.049.049 0 0 0-.047.05m0-27.266c0 .026.02.047.047.047.028 0 .05-.02.05-.047a.048.048 0 0 0-.05-.05.048.048 0 0 0-.047.05m-.88-27.219c0 .055.044.099.097.099a.098.098 0 0 0 .098-.099.098.098 0 1 0-.195 0m0-27.266c0 .054.044.098.097.098a.098.098 0 0 0 .098-.098.097.097 0 0 0-.098-.097.096.096 0 0 0-.097.097m0-27.265c0 .055.044.097.097.097a.097.097 0 0 0 .098-.097.098.098 0 0 0-.098-.098.098.098 0 0 0-.097.098m0-27.217a.147.147 0 0 0 .294 0 .149.149 0 0 0-.148-.147.147.147 0 0 0-.146.147m0-27.317c0 .055.044.099.097.099a.098.098 0 0 0 .098-.099.098.098 0 1 0-.195 0m0-27.266c0 .055.044.098.097.098A.098.098 0 0 0 .74.971.097.097 0 0 0 .643.874a.096.096 0 0 0-.097.097m27.266 599.123a.244.244 0 0 0 .488 0 .243.243 0 0 0-.488 0m0-26.531c0 .055.044.097.099.097a.096.096 0 0 0 .097-.097.098.098 0 0 0-.097-.098.098.098 0 0 0-.099.098m0-27.266c0 .053.044.097.099.097a.098.098 0 1 0-.099-.097m0-27.219c0 .081.067.148.148.148a.147.147 0 0 0 0-.294.147.147 0 0 0-.148.146m0-27.217a.195.195 0 1 0 .39.001.195.195 0 0 0-.39 0m0-28.1a.244.244 0 0 0 .488 0 .243.243 0 0 0-.488 0m0-26.384a.244.244 0 1 0 .487-.002.244.244 0 0 0-.487.002m0-27.268a.244.244 0 1 0 .488.001.244.244 0 0 0-.488 0m0-28.048a.34.34 0 1 0 .681 0 .34.34 0 1 0-.68 0m0-27.17a.438.438 0 1 0 .876 0 .438.438 0 0 0-.877 0m0-27.167a.536.536 0 1 0 1.073 0 .536.536 0 0 0-1.073 0m0-27.267a.535.535 0 1 0 1.07 0 .535.535 0 0 0-1.07 0m0-27.364a.44.44 0 1 0 .88 0 .44.44 0 0 0-.88 0m0-26.533a.293.293 0 0 0 .586 0 .292.292 0 0 0-.586 0m0-27.363a.195.195 0 1 0 .39.001.195.195 0 0 0-.39 0m0-27.364c0 .055.044.097.099.097a.096.096 0 0 0 .097-.097.098.098 0 0 0-.097-.098.098.098 0 0 0-.099.098m0-27.266c0 .053.044.097.099.097a.098.098 0 1 0-.099-.097m0-27.268a.098.098 0 0 0 .195 0 .098.098 0 0 0-.195 0m0-27.217a.147.147 0 0 0 .294 0 .147.147 0 0 0-.294 0m0-27.266a.147.147 0 0 0 .294 0 .147.147 0 0 0-.294 0m0-27.265a.147.147 0 0 0 .294 0 .147.147 0 0 0-.146-.147.149.149 0 0 0-.148.147m0-27.317a.098.098 0 0 0 .195 0 .098.098 0 0 0-.195 0m0-27.266a.098.098 0 0 0 .195 0 .096.096 0 0 0-.096-.097.097.097 0 0 0-.099.097m27.266 599.075a.196.196 0 0 0 .39 0 .196.196 0 0 0-.194-.195.196.196 0 0 0-.196.195m0-26.483c0 .055.044.097.099.097a.095.095 0 0 0 .097-.097.097.097 0 0 0-.097-.098.098.098 0 0 0-.099.098m0-27.266c0 .053.044.097.099.097a.096.096 0 0 0 .097-.097.097.097 0 0 0-.097-.099.098.098 0 0 0-.099.099m0-27.219c0 .081.066.148.146.148a.147.147 0 0 0 0-.294.146.146 0 0 0-.146.146m0-27.217a.196.196 0 0 0 .39 0 .196.196 0 0 0-.194-.195.196.196 0 0 0-.196.195m0-28.098a.244.244 0 0 0 .488 0 .243.243 0 0 0-.488 0m0-26.385a.244.244 0 1 0 .488-.002.244.244 0 0 0-.488.002m0-27.268a.244.244 0 1 0 .488.001.244.244 0 0 0-.488 0m0-28.048a.342.342 0 1 0 .684 0 .342.342 0 0 0-.684 0m0-27.17a.438.438 0 1 0 .877 0 .438.438 0 0 0-.877 0m0-27.167a.538.538 0 0 0 1.074 0 .538.538 0 0 0-1.074 0m0-27.267a.536.536 0 1 0 1.073-.002.536.536 0 0 0-1.073.002m0-27.364a.44.44 0 1 0 .88 0 .44.44 0 0 0-.88 0m0-26.484a.342.342 0 1 0 .684 0 .342.342 0 0 0-.684 0m0-27.364a.244.244 0 0 0 .488 0 .243.243 0 0 0-.488 0m0-27.314a.196.196 0 0 0 .39 0 .196.196 0 0 0-.194-.195.196.196 0 0 0-.196.195m0-27.314c0 .08.066.146.146.146a.147.147 0 0 0 0-.294.147.147 0 0 0-.146.148m0-27.317c0 .055.044.099.099.099a.097.097 0 0 0 .097-.099.096.096 0 0 0-.097-.097.098.098 0 0 0-.099.097m0-27.217a.146.146 0 1 0 .292 0 .146.146 0 1 0-.292 0m0-27.217a.196.196 0 0 0 .39 0 .196.196 0 0 0-.194-.195.196.196 0 0 0-.196.195m0-27.266a.196.196 0 0 0 .39 0 .196.196 0 0 0-.194-.195.196.196 0 0 0-.196.195m0-27.316c0 .081.066.148.146.148a.147.147 0 0 0 0-.294.146.146 0 0 0-.146.146m0-27.266a.146.146 0 1 0 .292 0 .146.146 0 1 0-.292 0m27.267 598.977a.146.146 0 1 0 .146-.146.146.146 0 0 0-.146.146m0-26.434c0 .055.044.097.098.097a.095.095 0 0 0 .097-.097.097.097 0 0 0-.097-.098.098.098 0 0 0-.098.098m0-27.266c0 .053.044.097.098.097a.096.096 0 0 0 .097-.097.097.097 0 0 0-.097-.099.098.098 0 0 0-.098.099m0-27.268c0 .054.044.098.098.098a.097.097 0 0 0 .097-.098.096.096 0 0 0-.097-.097.098.098 0 0 0-.098.097m0-27.217a.146.146 0 1 0 .292 0 .146.146 0 1 0-.292 0m0-27.217c0 .107.088.195.195.195a.196.196 0 0 0 .195-.195.196.196 0 0 0-.195-.195.196.196 0 0 0-.195.195m0-27.217a.243.243 0 1 0 .486 0 .243.243 0 0 0-.486 0m0-28.098c0 .162.13.294.292.294a.293.293 0 0 0 0-.586.292.292 0 0 0-.292.292m0-27.17a.39.39 0 0 0 .78 0 .39.39 0 0 0-.78 0m0-27.167a.487.487 0 1 0 .974 0 .487.487 0 0 0-.974 0m0-27.217a.538.538 0 0 0 1.073 0 .538.538 0 0 0-1.073 0m0-27.267a.536.536 0 1 0 1.072-.002.536.536 0 0 0-1.072.002m0-27.315a.487.487 0 1 0 .974 0 .487.487 0 0 0-.974 0m0-26.436a.438.438 0 1 0 .877.003.438.438 0 0 0-.877-.003m0-27.314c0 .215.176.39.39.39.215 0 .39-.175.39-.39a.392.392 0 0 0-.39-.39.392.392 0 0 0-.39.39m0-27.412a.243.243 0 1 0 .486 0 .243.243 0 0 0-.486 0m0-27.266a.243.243 0 1 0 .486-.001.243.243 0 0 0-.486.001m0-27.268c0 .135.109.245.242.245a.244.244 0 0 0 0-.488.243.243 0 0 0-.242.243m0-27.266a.243.243 0 0 0 .485 0 .243.243 0 0 0-.485 0m0-27.266a.243.243 0 0 0 .485 0 .243.243 0 0 0-.485 0m0-27.265a.243.243 0 1 0 .486 0 .243.243 0 0 0-.486 0m0-27.315a.195.195 0 1 0 .39 0 .195.195 0 0 0-.39 0m0-27.267c0 .108.088.196.195.196a.196.196 0 0 0 .195-.196.196.196 0 0 0-.195-.195.196.196 0 0 0-.195.195m27.266 598.928a.146.146 0 1 0 .292 0 .146.146 0 1 0-.292 0m0-26.434c0 .055.042.097.097.097a.097.097 0 0 0 .098-.097.098.098 0 0 0-.098-.098.097.097 0 0 0-.097.098m0-27.266a.098.098 0 0 0 .195 0 .098.098 0 0 0-.098-.099.097.097 0 0 0-.097.099m0-27.268c0 .054.042.098.097.098a.098.098 0 0 0 .098-.098.098.098 0 0 0-.098-.097.096.096 0 0 0-.097.097m0-27.217a.146.146 0 1 0 .292 0 .146.146 0 1 0-.292 0m0-28.05a.243.243 0 1 0 .486 0 .243.243 0 0 0-.486 0m0-26.384a.243.243 0 1 0 .486-.001.243.243 0 0 0-.486.001m0-28.05a.34.34 0 1 0 .682 0 .34.34 0 0 0-.34-.34.34.34 0 0 0-.342.34m0-27.12a.487.487 0 1 0 .974 0 .487.487 0 0 0-.974 0m0-27.12a.634.634 0 1 0 .633-.633.633.633 0 0 0-.633.634m-.88-27.168a.73.73 0 1 0 1.461-.001.73.73 0 0 0-1.46 0m0-27.265a.73.73 0 1 0 1.46-.001.73.73 0 0 0-1.46 0m.879-27.317a.68.68 0 1 0 1.363 0 .682.682 0 0 0-1.363 0m0-27.41a.538.538 0 0 0 1.073 0 .538.538 0 0 0-1.073 0m0-27.315a.487.487 0 1 0 .974 0 .487.487 0 0 0-.974 0m0-26.484a.389.389 0 1 0 .778 0 .389.389 0 0 0-.778 0m0-27.315c0 .188.153.34.341.34a.34.34 0 1 0 0-.682.34.34 0 0 0-.341.342m0-27.316a.291.291 0 1 0 .584 0 .291.291 0 1 0-.584 0m0-27.217a.342.342 0 1 0 .683 0 .342.342 0 0 0-.683 0m0-27.266a.342.342 0 1 0 .683 0 .342.342 0 0 0-.683 0m0-27.266a.342.342 0 1 0 .683 0 .342.342 0 0 0-.683 0m0-27.268a.34.34 0 1 0 .682 0 .34.34 0 0 0-.34-.34.34.34 0 0 0-.342.34m0-27.264a.342.342 0 1 0 .683-.001.342.342 0 0 0-.683 0m27.266 598.782a.147.147 0 0 0 .294 0 .147.147 0 0 0-.294 0m0-27.264a.147.147 0 0 0 .294 0 .149.149 0 0 0-.148-.148.147.147 0 0 0-.146.148m0-26.387a.147.147 0 0 0 .294 0 .149.149 0 0 0-.148-.148.147.147 0 0 0-.146.148m0-28.05a.244.244 0 1 0 .487.001.244.244 0 0 0-.487-.002m0-27.217a.293.293 0 1 0 .586 0 .293.293 0 0 0-.586 0m0-27.217a.34.34 0 1 0 .68 0 .34.34 0 1 0-.68 0m0-27.12a.487.487 0 1 0 .975 0 .487.487 0 0 0-.975 0m0-27.12a.633.633 0 1 0 1.267.004.633.633 0 0 0-1.267-.004m-.88-27.07a.829.829 0 1 0 1.658-.001.829.829 0 0 0-1.657 0m0-26.775a1.32 1.32 0 1 0 2.64 0 1.32 1.32 0 0 0-2.64 0m0-28.146a1.319 1.319 0 1 0 2.637 0 1.319 1.319 0 0 0-2.637 0m0-27.265a1.318 1.318 0 1 0 2.639 0 1.318 1.318 0 1 0-2.64 0m0-26.39a1.319 1.319 0 1 0 2.64 0 1.319 1.319 0 0 0-2.64 0m0-27.755a.829.829 0 1 0 1.658 0 .829.829 0 0 0-1.657 0m.88-27.461a.634.634 0 1 0 1.268-.002.634.634 0 0 0-1.269.002m0-26.533a.487.487 0 1 0 .975 0 .487.487 0 0 0-.975 0m0-27.363a.389.389 0 1 0 .778 0 .389.389 0 0 0-.778 0m0-27.268a.39.39 0 1 0 .779.003.39.39 0 0 0-.779-.003m0-27.266a.39.39 0 1 0 .78 0 .39.39 0 0 0-.78 0m0-27.217a.438.438 0 1 0 .876 0 .438.438 0 0 0-.876 0m0-27.265a.438.438 0 1 0 .876 0 .438.438 0 0 0-.876 0m0-27.317a.39.39 0 1 0 .779.003.39.39 0 0 0-.779-.003m0-27.266a.39.39 0 1 0 .779.002.39.39 0 0 0-.779-.002m27.266 598.783a.195.195 0 1 0 .39.001.195.195 0 0 0-.39 0m0-27.218a.244.244 0 1 0 .488-.001.244.244 0 0 0-.488.001m0-27.216a.292.292 0 1 0 .585-.001.292.292 0 0 0-.585 0m0-27.17a.39.39 0 1 0 .78.001.39.39 0 0 0-.78-.002m0-27.118a.536.536 0 1 0 1.073 0 .536.536 0 0 0-1.073 0m-.88-27.12a.682.682 0 1 0 1.365 0 .682.682 0 0 0-1.364 0m0-26.628a1.32 1.32 0 0 0 2.638 0 1.32 1.32 0 1 0-2.638 0m0-28.148a1.318 1.318 0 1 0 2.638 0 1.318 1.318 0 1 0-2.639 0m-.879-26.826a1.759 1.759 0 1 0 3.519 0 1.759 1.759 0 0 0-3.519 0m0-27.706a2.2 2.2 0 1 0 4.398 0 2.2 2.2 0 0 0-4.398 0m0-26.826a2.639 2.639 0 1 0 5.278 0 2.639 2.639 0 0 0-5.278 0m0-27.705a2.2 2.2 0 1 0 4.4-.004 2.2 2.2 0 0 0-4.4.004m0-26.829a1.76 1.76 0 1 0 3.52 0 1.76 1.76 0 0 0-3.52 0m.88-27.705a1.32 1.32 0 1 0 2.638 0 1.32 1.32 0 0 0-2.638 0m0-26.877a.828.828 0 1 0 1.655.002.828.828 0 0 0-1.655-.002m.88-27.51a.585.585 0 1 0 1.17-.001.585.585 0 0 0-1.17.002m0-26.484a.487.487 0 1 0 .974 0 .487.487 0 0 0-.975 0m0-27.317a.44.44 0 1 0 .88 0 .44.44 0 0 0-.88 0m0-27.266a.438.438 0 1 0 .877 0 .438.438 0 0 0-.877 0m0-27.217a.487.487 0 1 0 .975 0 .487.487 0 0 0-.975 0m0-27.314a.438.438 0 1 0 .877 0 .438.438 0 0 0-.877 0m0-27.317a.39.39 0 1 0 .78.002.39.39 0 0 0-.78-.002m0-27.266a.39.39 0 1 0 .78.002.39.39 0 0 0-.78-.002m27.266 598.83a.243.243 0 0 0 .486 0 .243.243 0 0 0-.486 0m0-27.167a.342.342 0 1 0 .684 0 .342.342 0 0 0-.684 0m0-27.07a.536.536 0 1 0 1.073-.003.536.536 0 0 0-1.073.002m-.88-27.072a.731.731 0 1 0 1.463 0 .731.731 0 0 0-1.462 0m0-27.557a1.32 1.32 0 1 0 2.638 0 1.32 1.32 0 0 0-2.638 0m0-27.265a1.32 1.32 0 1 0 2.638-.002 1.32 1.32 0 0 0-2.638.002m-.88-26.827a1.76 1.76 0 1 0 3.52-.002 1.76 1.76 0 0 0-3.52.002m0-27.707a2.2 2.2 0 1 0 4.4 0 2.2 2.2 0 0 0-4.4 0m-.88-26.386a3.078 3.078 0 1 0 6.157 0 3.078 3.078 0 0 0-6.156 0m-.88-27.706a3.518 3.518 0 1 0 7.036 0 3.518 3.518 0 0 0-7.036 0m0-27.266a3.52 3.52 0 0 0 7.037 0 3.52 3.52 0 0 0-7.037 0m0-27.265a3.518 3.518 0 1 0 7.036-.002 3.518 3.518 0 0 0-7.036.002m.88-27.269a2.64 2.64 0 0 0 2.638 2.64 2.638 2.638 0 1 0-2.639-2.64m.88-26.825c0 1.216.983 2.199 2.2 2.199a2.198 2.198 0 1 0-2.2-2.2m.88-27.265a1.32 1.32 0 0 0 2.639 0 1.32 1.32 0 0 0-2.64 0m0-27.807a.779.779 0 1 0 1.558.002.779.779 0 0 0-1.557-.002m0-27.41a.634.634 0 1 0 1.269-.002.634.634 0 0 0-1.27.002m.88-26.485a.536.536 0 1 0 1.073 0 .536.536 0 0 0-1.073 0m0-27.266a.538.538 0 0 0 1.074 0 .538.538 0 0 0-1.074 0m0-27.316a.487.487 0 1 0 .975 0 .487.487 0 0 0-.975 0m0-27.266a.487.487 0 1 0 .975 0 .487.487 0 0 0-.975 0m0-27.365a.39.39 0 1 0 0 0m0-27.266a.39.39 0 1 0 0 0m27.267 598.83a.243.243 0 0 0 .485 0 .243.243 0 0 0-.485 0m0-27.068a.437.437 0 1 0 .876 0 .438.438 0 1 0-.876 0m-.88-26.925a.779.779 0 1 0 1.559 0 .78.78 0 1 0-1.559 0m0-27.609a1.32 1.32 0 1 0 2.639.003 1.32 1.32 0 0 0-2.639-.003m-.88-26.385a2.198 2.198 0 1 0 4.397.001 2.198 2.198 0 0 0-4.396-.001m0-28.145a2.198 2.198 0 1 0 4.396 0 2.198 2.198 0 0 0-4.396 0m-.88-26.388a3.079 3.079 0 1 0 6.157 0 3.079 3.079 0 0 0-6.157 0m-.88-27.707a3.52 3.52 0 1 0 7.037 0 3.519 3.519 0 0 0-7.037 0m0-27.706a3.959 3.959 0 1 0 7.918 0 3.959 3.959 0 0 0-7.918 0m-.88-26.825a4.398 4.398 0 1 0 8.797 0 4.398 4.398 0 0 0-8.796 0m0-26.827a4.839 4.839 0 0 0 4.837 4.838 4.838 4.838 0 1 0-4.838-4.838m0-27.704a4.396 4.396 0 0 0 4.399 4.396 4.398 4.398 0 1 0-4.398-4.397m.88-27.268a3.517 3.517 0 1 0 7.036 0 3.519 3.519 0 0 0-7.037 0m.88-27.265a2.638 2.638 0 1 0 5.276.001 2.638 2.638 0 0 0-5.276 0m.88-27.267a1.758 1.758 0 1 0 3.518 0 1.76 1.76 0 0 0-3.518 0m.88-26.827a1.32 1.32 0 0 0 2.638 0 1.32 1.32 0 1 0-2.639 0m0-27.804a.779.779 0 1 0 1.559 0 .78.78 0 1 0-1.559 0m0-27.367a.682.682 0 1 0 1.364.001.682.682 0 0 0-1.364 0m0-27.314a.633.633 0 1 0 1.266 0 .633.633 0 0 0-1.266 0m0-26.434a.586.586 0 0 0 1.172 0 .586.586 0 1 0-1.172 0m.88-27.365a.487.487 0 1 0 .974 0 .487.487 0 0 0-.974 0m0-27.365a.39.39 0 0 0 .78 0 .39.39 0 0 0-.78 0m0-27.266a.39.39 0 0 0 .78 0 .39.39 0 0 0-.78 0m27.266 598.83a.243.243 0 1 0 .486 0 .243.243 0 0 0-.486 0m0-26.971a.538.538 0 1 0 1.075-.003.538.538 0 0 0-1.075.002m-.88-27.361a1.319 1.319 0 1 0 2.638-.001 1.319 1.319 0 0 0-2.638 0m-.88-26.827a1.759 1.759 0 1 0 3.519 0 1.759 1.759 0 0 0-3.518 0m-.88-27.266a2.637 2.637 0 1 0 5.278 0 2.64 2.64 0 0 0-5.278 0m0-27.705a3.077 3.077 0 0 0 3.078 3.077 3.077 3.077 0 1 0 0-6.157 3.079 3.079 0 0 0-3.078 3.08m-.88-26.826a3.516 3.516 0 0 0 3.518 3.517 3.517 3.517 0 1 0 0-7.037 3.517 3.517 0 0 0-3.517 3.52m0-26.829a3.958 3.958 0 1 0 7.917.001 3.958 3.958 0 0 0-7.917-.001m-.88-27.706a4.398 4.398 0 1 0 8.795.002 4.398 4.398 0 0 0-8.795-.002m0-27.705a4.838 4.838 0 1 0 9.677-.002 4.838 4.838 0 0 0-9.677.002m0-27.265a4.837 4.837 0 1 0 9.675-.002 4.837 4.837 0 0 0-9.675.002m0-26.387a4.838 4.838 0 1 0 9.675-.002 4.838 4.838 0 0 0-9.675.002m.88-27.268a3.958 3.958 0 1 0 7.917.001 3.958 3.958 0 0 0-7.917-.001m.88-27.265a3.079 3.079 0 1 0 6.156 0 3.079 3.079 0 0 0-6.157 0m.88-27.266a2.198 2.198 0 1 0 4.396.001 2.198 2.198 0 0 0-4.396-.001m.88-28.145a1.319 1.319 0 1 0 2.637-.001 1.319 1.319 0 0 0-2.638 0m0-26.386a1.319 1.319 0 1 0 2.638 0 1.319 1.319 0 0 0-2.638 0m0-27.71a.876.876 0 1 0 1.753.002.876.876 0 0 0-1.753-.002m0-27.265a.878.878 0 1 0 1.756 0 .878.878 0 0 0-1.756 0m0-27.364a.779.779 0 1 0 1.557.001.779.779 0 0 0-1.557-.001m0-27.363c0 .376.305.68.681.68a.68.68 0 1 0 0-1.363.68.68 0 0 0-.68.683m.879-26.582a.488.488 0 1 0 .975.003.488.488 0 0 0-.975-.003m0-27.266a.487.487 0 1 0 .974 0 .487.487 0 0 0-.974 0m27.266 598.732a.244.244 0 0 0 .487 0 .243.243 0 0 0-.487 0m-.88-26.973a.536.536 0 1 0 1.073 0 .536.536 0 0 0-1.072 0m0-27.361a1.319 1.319 0 0 0 2.638 0 1.319 1.319 0 1 0-2.638 0m-.88-27.268c0 1.216.983 2.2 2.2 2.2a2.198 2.198 0 1 0-2.2-2.199m-.88-26.387a3.078 3.078 0 1 0 6.157 0 3.078 3.078 0 0 0-6.157 0m-.88-27.705a3.518 3.518 0 1 0 7.037-.002 3.518 3.518 0 0 0-7.036.002m0-27.266a3.517 3.517 0 0 0 3.52 3.517 3.519 3.519 0 1 0-3.52-3.517m0-26.83a3.959 3.959 0 1 0 7.917.002 3.959 3.959 0 0 0-7.917-.001m-.88-28.146a3.959 3.959 0 1 0 7.918 0 3.959 3.959 0 0 0-7.918 0m0-26.825a4.399 4.399 0 1 0 4.399-4.398 4.4 4.4 0 0 0-4.399 4.398m0-26.827a4.838 4.838 0 1 0 9.675 0 4.838 4.838 0 0 0-9.675 0m0-27.704a4.396 4.396 0 0 0 4.4 4.396 4.398 4.398 0 1 0-4.399-4.397m.879-27.267a3.517 3.517 0 0 0 3.52 3.518 3.518 3.518 0 1 0-3.52-3.518m.88-26.826a3.079 3.079 0 1 0 6.157-.001 3.079 3.079 0 0 0-6.158 0m.88-27.265a2.2 2.2 0 1 0 4.398 0 2.2 2.2 0 0 0-4.398 0m0-27.705a1.76 1.76 0 1 0 3.52-.004 1.76 1.76 0 0 0-3.52.004m.88-26.827c0 .729.59 1.319 1.32 1.319.729 0 1.318-.59 1.318-1.319a1.318 1.318 0 1 0-2.639 0m0-27.267a1.319 1.319 0 1 0 2.638.001 1.319 1.319 0 0 0-2.637-.001m0-27.266a1.319 1.319 0 1 0 2.637.001 1.319 1.319 0 0 0-2.637-.001m0-27.266a1.319 1.319 0 1 0 2.637 0 1.319 1.319 0 0 0-2.637 0m0-27.265a1.32 1.32 0 0 0 2.638 0 1.32 1.32 0 1 0-2.638 0m0-27.857a.731.731 0 1 0 1.462.001.731.731 0 0 0-1.462-.001m0-27.266a.731.731 0 1 0 1.462 0 .731.731 0 0 0-1.462 0m28.145 599.369a.244.244 0 0 0 .488 0 .243.243 0 0 0-.488 0m0-27.07a.438.438 0 1 0 .877 0 .438.438 0 0 0-.877 0m-.88-27.707a.876.876 0 1 0 1.754 0 .876.876 0 0 0-1.753 0m-.88-26.386a1.76 1.76 0 1 0 3.52 0 1.76 1.76 0 0 0-3.52 0m-.88-27.265a2.638 2.638 0 1 0 2.639-2.639 2.638 2.638 0 0 0-2.638 2.639m0-27.705a3.077 3.077 0 0 0 3.08 3.077 3.079 3.079 0 1 0-3.08-3.077m-.88-27.267a3.079 3.079 0 1 0 6.158-.001 3.079 3.079 0 0 0-6.158 0m0-27.267a3.079 3.079 0 1 0 6.158.002 3.079 3.079 0 0 0-6.158-.002m0-26.825a3.518 3.518 0 1 0 7.036 0 3.518 3.518 0 0 0-7.036 0m0-26.826a3.958 3.958 0 1 0 7.916 0 3.958 3.958 0 0 0-7.916 0m0-27.267a3.959 3.959 0 1 0 7.917 0 3.959 3.959 0 0 0-7.917 0m0-27.704a3.517 3.517 0 0 0 7.037 0 3.52 3.52 0 1 0-7.037 0m0-27.709a3.08 3.08 0 0 0 3.079 3.08 3.079 3.079 0 1 0-3.078-3.08m.879-26.826a2.638 2.638 0 1 0 5.278.003 2.638 2.638 0 0 0-5.278-.003m.88-26.825a2.199 2.199 0 1 0 4.397 0 2.199 2.199 0 0 0-4.398 0m0-27.705a1.76 1.76 0 1 0 3.52-.004 1.76 1.76 0 0 0-3.52.004m0-26.827a1.32 1.32 0 1 0 2.639-.002 1.32 1.32 0 0 0-2.639.002m0-27.708c0 .972.789 1.76 1.76 1.76a1.76 1.76 0 1 0-1.76-1.76m0-27.265a1.758 1.758 0 1 0 3.518 0 1.76 1.76 0 0 0-3.518 0m0-27.265a1.76 1.76 0 1 0 3.52-.004 1.76 1.76 0 0 0-3.52.004m0-26.827a1.32 1.32 0 1 0 2.639-.001 1.32 1.32 0 0 0-2.639.001m.88-27.268a1.32 1.32 0 1 0 1.32-1.318c-.729 0-1.32.591-1.32 1.318m0-27.266a1.32 1.32 0 1 0 1.32-1.318c-.729 0-1.32.591-1.32 1.318m28.145 598.78a.243.243 0 0 0 .486 0 .243.243 0 0 0-.486 0m0-27.118a.39.39 0 1 0 .781-.003.39.39 0 0 0-.78.003m-.88-26.924a.732.732 0 0 0 1.462 0 .73.73 0 1 0-1.462 0m-.88-27.56a1.32 1.32 0 1 0 2.639.003 1.32 1.32 0 0 0-2.639-.003m0-27.265a2.198 2.198 0 1 0 4.397.002 2.198 2.198 0 0 0-4.397-.002m-.88-27.265a2.198 2.198 0 1 0 4.397 0 2.198 2.198 0 0 0-4.396 0m0-26.826a2.639 2.639 0 1 0 5.278-.003 2.639 2.639 0 0 0-5.278.003m0-27.269a2.64 2.64 0 1 0 5.279.001 2.64 2.64 0 0 0-5.28 0m0-27.266a2.638 2.638 0 1 0 5.277.002 2.638 2.638 0 0 0-5.276-.002m0-26.826a3.077 3.077 0 0 0 3.078 3.078 3.077 3.077 0 0 0 3.079-3.078 3.077 3.077 0 0 0-3.079-3.079 3.077 3.077 0 0 0-3.078 3.079m0-27.267a3.078 3.078 0 1 0 6.157 0 3.078 3.078 0 0 0-6.157 0m0-27.266a3.079 3.079 0 1 0 6.157 0 3.079 3.079 0 0 0-6.157 0m0-27.707a2.638 2.638 0 1 0 5.277.003 2.638 2.638 0 0 0-5.277-.003m0-27.265a2.638 2.638 0 1 0 5.278 0 2.638 2.638 0 0 0-5.278 0m.88-26.826a2.198 2.198 0 1 0 4.396.001 2.198 2.198 0 0 0-4.397-.001m0-27.705a1.76 1.76 0 1 0 3.52-.004 1.76 1.76 0 0 0-3.52.004m0-26.827a1.32 1.32 0 1 0 2.639-.002 1.32 1.32 0 0 0-2.639.002m0-27.708a1.76 1.76 0 1 0 3.52.002 1.76 1.76 0 0 0-3.52-.002m0-27.266a1.76 1.76 0 1 0 3.521 0 1.76 1.76 0 0 0-3.52 0m0-27.265a1.759 1.759 0 1 0 3.517 0 1.759 1.759 0 0 0-3.518 0m0-27.265a1.758 1.758 0 1 0 3.519 0 1.76 1.76 0 1 0-3.519 0m.88-26.828a1.32 1.32 0 1 0 2.638 0 1.32 1.32 0 0 0-2.638 0m0-27.266a1.32 1.32 0 1 0 2.638 0 1.32 1.32 0 0 0-2.638 0m28.146 598.732c0 .108.088.196.195.196a.196.196 0 0 0 .195-.196.196.196 0 0 0-.195-.195.196.196 0 0 0-.195.195m0-27.169a.291.291 0 1 0 .584 0 .291.291 0 1 0-.584 0m-.88-27.022a.536.536 0 1 0 1.072-.002.536.536 0 0 0-1.072.002m0-26.974a.828.828 0 1 0 1.656.002.828.828 0 0 0-1.656-.002m0-27.655a1.319 1.319 0 1 0 2.638.001 1.319 1.319 0 0 0-2.638 0m-.88-26.826c0 .972.789 1.758 1.759 1.758a1.758 1.758 0 1 0-1.758-1.758m0-27.267a1.759 1.759 0 1 0 3.517-.001 1.759 1.759 0 0 0-3.517.001m0-26.828a2.2 2.2 0 1 0 4.399 0 2.2 2.2 0 0 0-4.4 0m0-28.146a2.199 2.199 0 1 0 4.398.003 2.199 2.199 0 0 0-4.397-.003m-.88-27.265a2.199 2.199 0 1 0 4.398 0 2.199 2.199 0 0 0-4.398 0m0-27.265c0 1.215.985 2.198 2.199 2.198a2.198 2.198 0 1 0 0-4.398 2.2 2.2 0 0 0-2.199 2.2m0-27.266a2.199 2.199 0 1 0 4.398-.003 2.199 2.199 0 0 0-4.398.003m0-27.268a2.199 2.199 0 1 0 4.398 0 2.199 2.199 0 0 0-4.398 0m.88-26.386a2.198 2.198 0 1 0 2.199-2.199 2.2 2.2 0 0 0-2.2 2.199m0-27.266a2.198 2.198 0 1 0 4.397.001 2.198 2.198 0 0 0-4.396-.001m0-27.706a1.76 1.76 0 1 0 3.518 0 1.76 1.76 0 0 0-3.518 0m.88-26.826a1.318 1.318 0 0 0 2.638 0 1.319 1.319 0 1 0-2.639 0m0-27.268a1.32 1.32 0 1 0 0 0m-.88-26.825a1.758 1.758 0 1 0 3.519 0 1.758 1.758 0 1 0-3.518 0m0-28.146a1.76 1.76 0 1 0 3.518 0 1.76 1.76 0 0 0-3.518 0m0-26.826a1.319 1.319 0 1 0 2.637 0 1.319 1.319 0 0 0-2.637 0m.88-27.268a1.32 1.32 0 1 0 2.637.003 1.32 1.32 0 0 0-2.638-.003m0-27.265a1.32 1.32 0 1 0 2.639 0 1.32 1.32 0 0 0-2.639 0m28.146 598.732a.195.195 0 1 0 0 0m0-27.217a.243.243 0 1 0 .486 0 .243.243 0 0 0-.486 0m0-27.169a.34.34 0 1 0 .34-.341.339.339 0 0 0-.34.341m-.88-27.07a.536.536 0 1 0 1.073 0 .536.536 0 0 0-1.073 0m0-27.024a.78.78 0 1 0 .78-.78.779.779 0 0 0-.78.78m0-27.606a1.319 1.319 0 1 0 2.638.001 1.319 1.319 0 0 0-2.638-.001m-.88-27.266a1.319 1.319 0 1 0 2.638 0 1.319 1.319 0 0 0-2.637 0m0-26.828c0 .972.788 1.76 1.758 1.76a1.76 1.76 0 0 0 1.76-1.76 1.76 1.76 0 0 0-3.518 0m0-27.266a1.76 1.76 0 1 0 3.52 0 1.76 1.76 0 0 0-3.52 0m0-27.265a1.758 1.758 0 1 0 3.517.001 1.758 1.758 0 0 0-3.517-.001m0-27.266a1.76 1.76 0 1 0 3.52-.002 1.76 1.76 0 0 0-3.52.002m0-27.266a1.759 1.759 0 1 0 3.518-.001 1.759 1.759 0 0 0-3.518.001m0-26.828a2.2 2.2 0 0 0 2.197 2.2c1.215 0 2.2-.986 2.2-2.2a2.2 2.2 0 0 0-4.398 0m0-27.265a2.2 2.2 0 1 0 4.4 0 2.2 2.2 0 0 0-4.4 0m0-27.706a1.76 1.76 0 0 0 3.519 0 1.759 1.759 0 1 0-3.518 0m0-27.265a1.76 1.76 0 0 0 3.518 0 1.76 1.76 0 0 0-1.76-1.76 1.76 1.76 0 0 0-1.758 1.76m.88-26.827a1.319 1.319 0 1 0 1.318-1.32c-.729 0-1.319.59-1.319 1.32m0-27.71a.876.876 0 1 0 1.753.002.876.876 0 0 0-1.753-.002m0-26.824a1.32 1.32 0 1 0 2.639 0 1.32 1.32 0 0 0-2.639 0m0-27.265a1.319 1.319 0 1 0 2.638.001 1.319 1.319 0 0 0-2.638-.001m0-27.265a1.32 1.32 0 1 0 2.64-.004 1.32 1.32 0 0 0-2.64.004m0-27.857a.73.73 0 1 0 1.462.002.73.73 0 0 0-1.462-.002m0-27.266a.73.73 0 1 0 1.462.002.73.73 0 0 0-1.462-.002m28.146 599.321a.195.195 0 1 0 .39.001.195.195 0 0 0-.39 0m0-27.218a.244.244 0 1 0 .487-.001.244.244 0 0 0-.487.001m0-27.216a.292.292 0 1 0 .294-.294.294.294 0 0 0-.294.294m-.88-27.122a.44.44 0 1 0 .88 0 .44.44 0 0 0-.88 0m0-27.168a.536.536 0 1 0 1.073 0 .536.536 0 0 0-1.072 0m0-27.071a.73.73 0 1 0 1.461-.002.73.73 0 0 0-1.461.002m0-27.17a.828.828 0 1 0 1.655.002.828.828 0 0 0-1.655-.002m0-26.776a1.32 1.32 0 1 0 2.638.003 1.32 1.32 0 0 0-2.638-.003m0-28.146a1.32 1.32 0 1 0 2.64 0 1.32 1.32 0 0 0-2.64 0m-.88-27.265a1.319 1.319 0 1 0 2.64.001 1.319 1.319 0 0 0-2.64 0m0-27.267a1.319 1.319 0 1 0 2.64.001 1.319 1.319 0 0 0-2.64-.001m0-27.265a1.32 1.32 0 1 0 2.638-.002 1.32 1.32 0 0 0-2.638.002m0-26.828c0 .974.785 1.76 1.76 1.76a1.758 1.758 0 1 0 0-3.519c-.975 0-1.76.788-1.76 1.76m0-27.268a1.76 1.76 0 0 0 3.518 0 1.76 1.76 0 0 0-3.518 0m0-27.265a1.76 1.76 0 1 0 3.52-.002 1.76 1.76 0 0 0-3.52.002m0-26.827a1.32 1.32 0 1 0 2.638 0 1.32 1.32 0 0 0-2.638 0m.88-27.265a1.32 1.32 0 0 0 2.638 0 1.32 1.32 0 1 0-2.638 0m0-27.856a.731.731 0 1 0 1.462 0 .731.731 0 0 0-1.462 0m0-27.314a.682.682 0 1 0 1.364.001.682.682 0 0 0-1.364-.001m0-27.315a.634.634 0 1 0 1.268-.003.634.634 0 0 0-1.268.003m0-26.435a.585.585 0 1 0 1.17-.002.585.585 0 0 0-1.17.002m0-27.364a.488.488 0 1 0 .976.002.488.488 0 0 0-.976-.002m0-27.266a.488.488 0 1 0 .975-.001.488.488 0 0 0-.975 0m28.145 598.685a.196.196 0 0 0 .39 0 .196.196 0 0 0-.194-.195.196.196 0 0 0-.196.195m0-27.217a.244.244 0 1 0 .488-.001.244.244 0 0 0-.488.001m0-27.216a.292.292 0 1 0 .585-.001.292.292 0 0 0-.585 0m-.88-27.17a.39.39 0 1 0 0 0m0-27.168a.487.487 0 1 0 .975 0 .487.487 0 0 0-.974 0m0-27.168c0 .322.262.586.586.586a.586.586 0 0 0 0-1.172.586.586 0 0 0-.586.586m0-27.17a.682.682 0 1 0 1.363-.001.682.682 0 0 0-1.363.001m0-27.169a.78.78 0 1 0 1.56.002.78.78 0 0 0-1.56-.002m0-27.217a.829.829 0 1 0 1.657 0 .829.829 0 0 0-1.657 0m0-27.217a.878.878 0 1 0 1.756 0 .878.878 0 0 0-1.756 0m0-27.266a.878.878 0 1 0 1.756 0 .878.878 0 0 0-1.756 0m0-26.823a1.32 1.32 0 0 0 2.638 0 1.32 1.32 0 1 0-2.638 0m0-27.268a1.32 1.32 0 1 0 2.64 0 1.32 1.32 0 0 0-2.64 0m-.88-28.146a1.319 1.319 0 1 0 2.638.001 1.319 1.319 0 0 0-2.638 0m0-27.267a1.32 1.32 0 1 0 2.641-.002 1.32 1.32 0 0 0-2.64.002m0-26.387a1.319 1.319 0 1 0 2.637.001 1.319 1.319 0 0 0-2.638 0m.88-27.266a1.32 1.32 0 0 0 2.638 0 1.32 1.32 0 1 0-2.638 0m0-27.906a.682.682 0 1 0 1.364.001.682.682 0 0 0-1.364 0m0-26.531a.538.538 0 0 0 1.073 0 .538.538 0 0 0-1.073 0m0-27.413a.39.39 0 0 0 .779 0 .39.39 0 1 0-.78 0m.88-27.315a.342.342 0 1 0 .683 0 .342.342 0 0 0-.683 0m0-27.316c0 .162.13.294.292.294a.293.293 0 0 0 0-.586.292.292 0 0 0-.292.292m0-27.266a.291.291 0 1 0 .584 0 .291.291 0 1 0-.584 0m27.267 598.831a.146.146 0 1 0 .146-.146.146.146 0 0 0-.146.146m0-27.217c0 .108.087.195.195.195a.196.196 0 0 0 .195-.195.196.196 0 0 0-.195-.195.196.196 0 0 0-.195.195m0-27.217a.243.243 0 1 0 .486 0 .243.243 0 0 0-.486 0m-.88-27.17a.342.342 0 1 0 .683 0 .342.342 0 0 0-.683 0m0-27.169a.437.437 0 1 0 .876 0 .437.437 0 1 0-.876 0m0-27.167a.538.538 0 0 0 1.073 0 .538.538 0 0 0-1.073 0m0-27.267a.538.538 0 1 0 1.075-.002.538.538 0 0 0-1.075.002m0-27.169a.633.633 0 1 0 1.266.004.633.633 0 0 0-1.266-.004m0-27.266a.634.634 0 1 0 1.269.001.634.634 0 0 0-1.269-.001m0-27.217a.683.683 0 1 0 1.366-.001.683.683 0 0 0-1.366 0m0-27.265a.682.682 0 1 0 1.363-.002.682.682 0 0 0-1.363.002m0-27.267a.682.682 0 1 0 1.363-.001.682.682 0 0 0-1.363.001m0-27.12a.828.828 0 1 0 1.655.002.828.828 0 0 0-1.655-.002m0-26.775a1.32 1.32 0 1 0 2.638 0 1.32 1.32 0 0 0-2.638 0m-.88-27.266a1.319 1.319 0 1 0 2.638 0 1.319 1.319 0 0 0-2.638 0m0-27.265a1.32 1.32 0 1 0 2.639-.002 1.32 1.32 0 0 0-2.639.002m.88-27.267a1.319 1.319 0 1 0 2.637 0 1.319 1.319 0 0 0-2.637 0m0-27.906a.682.682 0 1 0 1.364.001.682.682 0 0 0-1.364 0m0-26.58a.487.487 0 1 0 .974 0 .487.487 0 0 0-.974 0m0-27.413a.342.342 0 1 0 .683 0 .342.342 0 0 0-.683 0m.88-27.363a.243.243 0 1 0 .486 0 .243.243 0 0 0-.486 0m0-27.365c0 .081.065.148.146.148a.147.147 0 0 0 0-.294.146.146 0 0 0-.146.146m0-27.266a.146.146 0 1 0 .146-.146.146.146 0 0 0-.146.146m27.266 598.977a.146.146 0 1 0 .292 0 .146.146 0 1 0-.292 0m0-27.217c0 .108.088.195.195.195a.196.196 0 0 0 .195-.195.196.196 0 0 0-.195-.195.196.196 0 0 0-.195.195m0-27.217a.243.243 0 1 0 .486 0 .243.243 0 0 0-.486 0m-.88-27.17a.342.342 0 1 0 .683 0 .342.342 0 0 0-.683 0m0-27.169a.438.438 0 1 0 .438-.438.437.437 0 0 0-.438.438m0-27.167a.538.538 0 0 0 1.073 0 .538.538 0 0 0-1.073 0m0-27.217a.585.585 0 1 0 1.17-.002.585.585 0 0 0-1.17.002m0-27.268a.585.585 0 1 0 1.17 0 .585.585 0 0 0-1.17 0m0-27.266a.585.585 0 1 0 1.17 0 .585.585 0 0 0-1.17 0m0-27.265c0 .322.262.586.584.586a.587.587 0 0 0 0-1.172.586.586 0 0 0-.584.586m0-27.266a.585.585 0 1 0 1.17-.002.585.585 0 0 0-1.17.002m0-27.217a.634.634 0 1 0 .633-.635.634.634 0 0 0-.633.635m0-27.171a.73.73 0 1 0 1.462.002.73.73 0 0 0-1.462-.002m0-27.119a.876.876 0 1 0 1.754 0 .878.878 0 0 0-1.754 0m0-26.824a1.32 1.32 0 1 0 2.639 0 1.32 1.32 0 0 0-2.639 0m0-27.267a1.32 1.32 0 1 0 2.639 0 1.32 1.32 0 0 0-2.639 0m0-27.707a.876.876 0 1 0 1.752 0 .876.876 0 0 0-1.752 0m0-27.464a.68.68 0 1 0 1.363 0 .682.682 0 0 0-1.363 0m0-26.58a.487.487 0 1 0 .975 0 .487.487 0 0 0-.975 0m0-27.461a.291.291 0 1 0 .584 0 .291.291 0 1 0-.584 0m.88-27.363c0 .107.088.195.195.195a.196.196 0 0 0 .195-.195.196.196 0 0 0-.195-.195.196.196 0 0 0-.195.195m0-27.365c0 .055.042.099.096.099a.098.098 0 0 0 .099-.099.098.098 0 0 0-.099-.097.096.096 0 0 0-.096.097m0-27.266c0 .055.042.098.096.098a.098.098 0 0 0 .099-.098.097.097 0 0 0-.099-.097.095.095 0 0 0-.096.097m26.386 544.642a.294.294 0 0 0 .586 0 .294.294 0 0 0-.294-.294.294.294 0 0 0-.292.294m0-136.041a.585.585 0 1 0 1.17 0 .585.585 0 0 0-1.17 0m0-27.217a.634.634 0 1 0 1.27.001.634.634 0 0 0-1.27-.001m0-27.266a.634.634 0 1 0 .633-.633.633.633 0 0 0-.633.633m0-27.217c0 .376.305.68.681.68a.68.68 0 1 0 0-1.363.682.682 0 0 0-.68.683m0-27.217a.73.73 0 1 0 1.46-.001.73.73 0 0 0-1.46 0m0-27.169a.828.828 0 1 0 1.655.002.828.828 0 0 0-1.656-.002m27.267 217.838a.536.536 0 1 0 1.072 0 .536.536 0 0 0-1.072 0m0-54.483a.585.585 0 1 0 1.17-.003.585.585 0 0 0-1.17.003m.828-55.118a.829.829 0 1 1 0 1.657.829.829 0 0 1 0-1.657"/>
</svg>
