<svg version="1.1" xmlns="http://www.w3.org/2000/svg" xmlns:xlink="http://www.w3.org/1999/xlink" x="0px" y="0px"
     width="44px" height="44px" viewBox="0 0 80 80" enable-background="new 0 0 80 80" xml:space="preserve">
    <circle fill="none" stroke="#72D816" stroke-width="2" cx="40" cy="40" r="39"/>
    <path fill="none" stroke="#72D816" stroke-width="2" stroke-linecap="square" d="M21.667,45l10,10l26.666-26.667"/>
</svg>
