<svg xmlns="http://www.w3.org/2000/svg" width="48" height="48" viewBox="0 0 48 48">
    <g fill="#3E4357" fill-rule="evenodd">
        <path d="M3 13.5h45V12H3z"/>
        <path d="M41.513 16.5H9.487l-3.955-3.164a.75.75 0 1 1 .936-1.172L10.013 15h30.974l3.545-2.836a.75.75 0 1 1 .936 1.172L41.513 16.5z"/>
        <path d="M19.5 39.663a.663.663 0 0 1-.469-1.132l10.454-10.453 4.421-6.632 2.223-5.929a.664.664 0 0 1 1.242.466l-2.32 6.134-4.582 6.852-10.5 10.5a.66.66 0 0 1-.469.194M12 32.25a.75.75 0 0 1-.74-.873l.82-4.712 2.17-4.342v-3.48l-.727-2.912a.75.75 0 1 1 1.454-.362l.773 3.181v3.927l-2.28 4.558-.73 4.388a.75.75 0 0 1-.74.627M23.163 25.545l-3.59-1.795-.813-4.877-.738-2.941a.75.75 0 1 1 1.455-.364l.75 3 .7 4.181 2.41 1.206 2.572-.643 3.511-2.809 2.929-5.125a.75.75 0 0 1 1.302.744l-3.07 5.374-3.99 3.191-3.428.858zM.75 42a.75.75 0 0 1-.53-1.28l5.25-5.25a.75.75 0 1 1 1.06 1.06l-5.25 5.25a.748.748 0 0 1-.53.22M12.75 48a.75.75 0 0 1-.53-1.28l2.25-2.25a.75.75 0 1 1 1.06 1.06l-2.25 2.25a.748.748 0 0 1-.53.22"/>
        <path d="M6.31 35.25l9.44 9.44 4.19-4.19-9.44-9.44-4.19 4.19zm9.44 11.25a.748.748 0 0 1-.53-.22l-10.5-10.5a.75.75 0 0 1 0-1.06l5.25-5.25a.75.75 0 0 1 1.06 0l10.5 10.5a.75.75 0 0 1 0 1.06l-5.25 5.25a.748.748 0 0 1-.53.22z"/>
        <path d="M16.5 41.25a.748.748 0 0 1-.53-.22l-1.5-1.5a.75.75 0 1 1 1.06-1.06l1.5 1.5a.75.75 0 0 1-.53 1.28M23.25 25.5a.75.75 0 0 1-.53-1.28l3.648-3.648 2.193-5.117a.75.75 0 0 1 1.379.591l-2.308 5.382-3.852 3.852a.748.748 0 0 1-.53.22M11.47 8.78L9.22 6.53l1.06-1.06 2.25 2.25zM18.08 4.835l-1.5-3 1.34-.67 1.5 3zM39.53 8.78l-1.06-1.06 2.25-2.25 1.06 1.06zM32.92 4.835l-1.34-.67 1.5-3 1.34.67zM24.75 3h1.5V0h-1.5z"/>
    </g>
</svg>
