<svg xmlns="http://www.w3.org/2000/svg" width="82" height="30" viewBox="0 0 82 30">
    <path fill="#989EB4" fill-rule="evenodd" d="M0 21.503c-.022 2.22.68 4.162 2.35 5.632C4.758 29.25 7.418 29.992 10.055 30c3.856.007 7.69-1.575 10.69-2.797C25.798 25.148 81.655.496 81.655.496c.54-.277.436-.622-.236-.45-.274.068-60.807 16.747-60.807 16.747-1.167.33-2.364.503-3.524.51-4.654.03-8.791-2.595-8.762-8.13.015-2.16.665-4.77 2.18-7.844C5.172 7.703.052 15.6 0 21.503z"/>
</svg>
