<svg width="30" height="30" viewBox="0 0 60 60" xmlns="http://www.w3.org/2000/svg">
  <g fill="none" fill-rule="evenodd">
    <path d="M30 60C13.43 60 0 46.57 0 30S13.43 0 30 0s30 13.43 30 30-13.43 30-30 30zm11.376-29.997c-.6-.93-1.412-1.78-2.392-2.515.3-.63.948-1.063 1.695-1.063 1.032 0 1.874.832 1.874 1.856 0 .78-.488 1.448-1.178 1.723zM35.16 30c-1.036 0-1.874.83-1.874 1.856 0 1.025.838 1.857 1.875 1.857 1.036 0 1.876-.832 1.876-1.857S36.196 30 35.16 30zm-5.73 10.927c-6.02 0-10.9-3.17-10.9-7.077 0-3.908 4.88-7.077 10.9-7.077 6.018 0 10.897 3.17 10.897 7.077s-4.88 7.077-10.898 7.077zM16.303 28.28c0-1.023.84-1.855 1.875-1.855.746 0 1.393.434 1.692 1.063-.978.735-1.79 1.584-2.39 2.515-.69-.275-1.178-.944-1.178-1.722zm23.437-9.397c.584 0 1.056.467 1.056 1.044s-.472 1.044-1.055 1.044c-.58 0-1.053-.466-1.053-1.043s.472-1.044 1.054-1.044zm.94 5.685c-1.41 0-2.638.77-3.278 1.91-1.928-1.046-4.276-1.72-6.834-1.874l2.237-4.976 4.283 1.224c.386 1.083 1.427 1.86 2.653 1.86 1.555 0 2.814-1.247 2.814-2.785s-1.26-2.784-2.813-2.784c-1.07 0-2 .592-2.476 1.465l-4.774-1.364c-.533-.153-1.098.108-1.325.61l-3.04 6.76c-2.494.173-4.783.842-6.67 1.863-.64-1.138-1.867-1.91-3.276-1.91-2.072 0-3.75 1.664-3.75 3.714 0 1.518.92 2.822 2.236 3.398-.237.696-.362 1.424-.362 2.172 0 5.125 5.876 9.282 13.125 9.282 7.247 0 13.124-4.157 13.124-9.282 0-.748-.126-1.476-.363-2.172 1.318-.576 2.24-1.88 2.24-3.397 0-2.05-1.68-3.712-3.75-3.712zm-14.787 7.288c0-1.025-.84-1.856-1.875-1.856-1.036 0-1.875.83-1.875 1.856 0 1.025.84 1.857 1.875 1.857 1.035 0 1.875-.832 1.875-1.857zm7.448 4.38c-.772.604-2.304 1.254-3.84 1.254-1.535 0-3.066-.65-3.84-1.254-.483-.376-1.184-.294-1.564.184-.38.478-.297 1.17.184 1.547 1.346 1.05 3.394 1.728 5.22 1.728 1.826 0 3.875-.68 5.22-1.728.482-.376.566-1.07.186-1.547-.382-.478-1.08-.56-1.565-.184z" fill="#989EB4"/>
  </g>
</svg>
